---
http_interactions:
- request:
    method: get
    uri: http://smc-ohana-api-test.herokuapp.com/api/search?action=index&controller=locations
    body:
      encoding: US-ASCII
      string: ''
    headers:
      Accept:
      - application/vnd.ohanapi-v1+json
      User-Agent:
      - Ohanakapa Ruby Gem 1.1.2
      Accept-Encoding:
      - gzip;q=1.0,deflate;q=0.6,identity;q=0.3
  response:
    status:
      code: 200
      message: OK
    headers:
      Server:
      - Cowboy
      Connection:
      - keep-alive
      X-Frame-Options:
      - SAMEORIGIN
      X-Xss-Protection:
      - 1; mode=block
      X-Content-Type-Options:
      - nosniff
      Etag:
      - '"c464f727ed8f9567e522a8adc6f024ef"'
      Link:
      - <http://smc-ohana-api-test.herokuapp.com/api/search?page=343>; rel="last",
        <http://smc-ohana-api-test.herokuapp.com/api/search?page=2>; rel="next"
      X-Total-Count:
      - '343'
      Content-Type:
      - application/json; charset=utf-8
      Cache-Control:
      - max-age=0, public
      X-Request-Id:
      - e3488257-b727-40fb-a971-0547b2f550b7
      X-Runtime:
      - '3.222846'
      X-Content-Digest:
      - a315da6510efa7aac563b1f949dd53cda88db56a
      Date:
      - Sat, 15 Aug 2015 18:04:31 GMT
      Age:
      - '0'
      X-Rack-Cache:
      - stale, valid, store
      Content-Length:
      - '1500'
      Via:
      - 1.1 vegur
    body:
      encoding: UTF-8
      string: '[{"id":1371,"active":true,"admin_emails":[],"alternate_name":null,"coordinates":[-122.138615,37.444609],"description":"A
        collection of 132,000 items including large print and foreign language books,
        magazines and newspapers, DVDs, audio and video cassettes, compact discs,
        paperbacks, talking books and telephone directories. Business as well as research
        reference is available. Also offers consumer information, photocopiers, bus
        schedules and the files of the Palo Alto Historical Association and Internet
        PCs.","kind":"Libraries","latitude":37.444609,"longitude":-122.138615,"name":"Main
        Library","short_desc":null,"slug":"main-library","updated_at":"2014-11-30T19:05:11.640-08:00","url":"http://smc-ohana-api-test.herokuapp.com/api/locations/main-library","address":{"id":1111,"address_1":"1213
        Newell Road","address_2":null,"street_1":"1213 Newell Road","street_2":null,"city":"Palo
        Alto","state_province":"CA","postal_code":"94303"},"organization":{"id":1296,"accreditations":[],"alternate_name":null,"date_incorporated":null,"description":null,"email":null,"funding_sources":[],"licenses":[],"name":"Palo
        Alto City Library","website":null,"slug":"palo-alto-city-library","url":"http://smc-ohana-api-test.herokuapp.com/api/organizations/palo-alto-city-library","locations_url":"http://smc-ohana-api-test.herokuapp.com/api/organizations/palo-alto-city-library/locations"},"phones":[{"id":1849,"department":null,"extension":null,"number":"650
        329-2436","number_type":null,"vanity_number":null}]}]'
    http_version: 
  recorded_at: Sat, 15 Aug 2015 18:04:31 GMT
- request:
    method: get
    uri: http://smc-ohana-api-test.herokuapp.com/api/search?action=index&controller=locations&keyword=&location=22031&org_name=
    body:
      encoding: US-ASCII
      string: ''
    headers:
      Accept:
      - application/vnd.ohanapi-v1+json
      User-Agent:
      - Ohanakapa Ruby Gem 1.1.2
      Accept-Encoding:
      - gzip;q=1.0,deflate;q=0.6,identity;q=0.3
  response:
    status:
      code: 200
      message: OK
    headers:
      Server:
      - Cowboy
      Connection:
      - keep-alive
      X-Frame-Options:
      - SAMEORIGIN
      X-Xss-Protection:
      - 1; mode=block
      X-Content-Type-Options:
      - nosniff
      Etag:
      - '"038955ceaabdb4259582bd1bd5f0efce"'
      Link:
      - <http://smc-ohana-api-test.herokuapp.com/api/search?keyword=&location=22031&org_name=&page=0>;
        rel="last"
      X-Total-Count:
      - '0'
      Content-Type:
      - application/json; charset=utf-8
      Cache-Control:
      - max-age=0, public
      X-Request-Id:
      - 6a374000-5dd9-4590-bfb8-f27ed83be725
      X-Runtime:
      - '0.029636'
      X-Content-Digest:
      - 97d170e1550eee4afc0af065b78cda302a97674c
      Date:
      - Sat, 15 Aug 2015 18:04:31 GMT
      Age:
      - '0'
      X-Rack-Cache:
      - stale, valid, store
      Content-Length:
      - '2'
      Via:
      - 1.1 vegur
    body:
      encoding: UTF-8
      string: "[]"
    http_version: 
  recorded_at: Sat, 15 Aug 2015 18:04:31 GMT
recorded_with: VCR 2.9.3
