---
http_interactions:
- request:
    method: get
    uri: http://ohana-api-test.herokuapp.com/api/search?action=index&controller=locations&keyword=youth
    body:
      encoding: US-ASCII
      string: ''
    headers:
      Accept:
      - application/vnd.ohanapi-v1+json
      User-Agent:
      - Ohanakapa Ruby Gem 1.1.2
      Accept-Encoding:
      - gzip;q=1.0,deflate;q=0.6,identity;q=0.3
  response:
    status:
      code: 200
      message: OK
    headers:
      Server:
      - Cowboy
      Connection:
      - close
      Date:
      - Fri, 21 Nov 2014 22:27:59 GMT
      Status:
      - 200 OK
      X-Frame-Options:
      - SAMEORIGIN
      X-Xss-Protection:
      - 1; mode=block
      X-Content-Type-Options:
      - nosniff
      Link:
      - <http://ohana-api-test.herokuapp.com/api/search?keyword=youth&page=3>; rel="last",
        <http://ohana-api-test.herokuapp.com/api/search?keyword=youth&page=2>; rel="next"
      X-Total-Count:
      - '3'
      Content-Type:
      - application/json; charset=utf-8
      Cache-Control:
      - max-age=0, public
      Etag:
      - '"c7794b0c3a971cf3df45f5612de88f35"'
      X-Request-Id:
      - 37bc2f40-6186-453b-a7db-498c9d968f43
      X-Runtime:
      - '0.024948'
      Via:
      - 1.1 vegur
    body:
      encoding: UTF-8
      string: '[{"id":12,"active":true,"admin_emails":["ohana@gmail.com"],"alternate_name":"","coordinates":[-122.2273954,37.4838423],"description":"Offers
        an intergenerational literacy program for youth and English-speaking adults
        seeking to improver literacy skills. Adult services include: adult one-to-one
        tutoring to improve basic skills in reading, writing and critical thinking;
        Families for Literacy (FFL), a home-based family literacy program for parents
        who want to be able to read to their young children; and small group/English
        as a Second Language (ESL). Youth services include: Youth Tutoring, Families
        in Partnership (FIP); Teen-to-Elementary Student Tutoring, Kids in Partnership
        (KIP); and computer-aided literacy. Redwood City Friends of Literacy is a
        fundraising board that helps to support and to fund Redwood City''s Project
        Read. Call for more information about each service.","latitude":37.4838423,"longitude":-122.2273954,"name":"Project
        Read","short_desc":"Offers an intergenerational literacy program for adults
        and youth seeking to improver literacy skills.","slug":"project-read","website":null,"updated_at":"2014-11-09T22:33:46.119-08:00","url":"http://ohana-api-test.herokuapp.com/api/locations/project-read","address":{"id":12,"address_1":"1044
        Middlefield Road","address_2":"2nd Floor","city":"Redwood City","state_province":"CA","postal_code":"94063"},"organization":{"id":3,"accreditations":[],"alternate_name":null,"date_incorporated":null,"description":"The
        Redwood City Public Library inspires learning through innovative and visionary
        programming and services—literacy programs, support for school success, access
        to technology, safe, inviting spaces for youth and families, and gathering
        places that connect the members of the community with a love of reading and
        learning.","email":null,"funding_sources":[],"licenses":[],"name":"Redwood
        City Public Library","website":null,"slug":"redwood-city-public-library","url":"http://ohana-api-test.herokuapp.com/api/organizations/redwood-city-public-library","locations_url":"http://ohana-api-test.herokuapp.com/api/organizations/redwood-city-public-library/locations"},"phones":[{"id":23,"department":null,"extension":null,"number":"650
        780-7077","number_type":"voice","vanity_number":null},{"id":24,"department":null,"extension":null,"number":"650
        780-7004","number_type":"fax","vanity_number":null}]}]'
    http_version:
  recorded_at: Fri, 21 Nov 2014 22:27:59 GMT
recorded_with: VCR 2.9.2
