---
http_interactions:
- request:
    method: get
    uri: http://smc-ohana-api-test.herokuapp.com/api/search?action=index&controller=locations
    body:
      encoding: US-ASCII
      string: ''
    headers:
      Accept:
      - application/vnd.ohanapi-v1+json
      User-Agent:
      - Ohanakapa Ruby Gem 1.1.2
      Accept-Encoding:
      - gzip;q=1.0,deflate;q=0.6,identity;q=0.3
  response:
    status:
      code: 200
      message: OK
    headers:
      Server:
      - Cowboy
      Connection:
      - keep-alive
      X-Frame-Options:
      - SAMEORIGIN
      X-Xss-Protection:
      - 1; mode=block
      X-Content-Type-Options:
      - nosniff
      Etag:
      - '"c464f727ed8f9567e522a8adc6f024ef"'
      Link:
      - <http://smc-ohana-api-test.herokuapp.com/api/search?page=343>; rel="last",
        <http://smc-ohana-api-test.herokuapp.com/api/search?page=2>; rel="next"
      X-Total-Count:
      - '343'
      Content-Type:
      - application/json; charset=utf-8
      Cache-Control:
      - max-age=0, public
      X-Request-Id:
      - e3488257-b727-40fb-a971-0547b2f550b7
      X-Runtime:
      - '3.222846'
      X-Content-Digest:
      - a315da6510efa7aac563b1f949dd53cda88db56a
      Date:
      - Sat, 15 Aug 2015 18:04:26 GMT
      Age:
      - '0'
      X-Rack-Cache:
      - stale, valid, store
      Content-Length:
      - '1500'
      Via:
      - 1.1 vegur
    body:
      encoding: UTF-8
      string: '[{"id":1371,"active":true,"admin_emails":[],"alternate_name":null,"coordinates":[-122.138615,37.444609],"description":"A
        collection of 132,000 items including large print and foreign language books,
        magazines and newspapers, DVDs, audio and video cassettes, compact discs,
        paperbacks, talking books and telephone directories. Business as well as research
        reference is available. Also offers consumer information, photocopiers, bus
        schedules and the files of the Palo Alto Historical Association and Internet
        PCs.","kind":"Libraries","latitude":37.444609,"longitude":-122.138615,"name":"Main
        Library","short_desc":null,"slug":"main-library","updated_at":"2014-11-30T19:05:11.640-08:00","url":"http://smc-ohana-api-test.herokuapp.com/api/locations/main-library","address":{"id":1111,"address_1":"1213
        Newell Road","address_2":null,"street_1":"1213 Newell Road","street_2":null,"city":"Palo
        Alto","state_province":"CA","postal_code":"94303"},"organization":{"id":1296,"accreditations":[],"alternate_name":null,"date_incorporated":null,"description":null,"email":null,"funding_sources":[],"licenses":[],"name":"Palo
        Alto City Library","website":null,"slug":"palo-alto-city-library","url":"http://smc-ohana-api-test.herokuapp.com/api/organizations/palo-alto-city-library","locations_url":"http://smc-ohana-api-test.herokuapp.com/api/organizations/palo-alto-city-library/locations"},"phones":[{"id":1849,"department":null,"extension":null,"number":"650
        329-2436","number_type":null,"vanity_number":null}]}]'
    http_version: 
  recorded_at: Sat, 15 Aug 2015 18:04:26 GMT
- request:
    method: get
    uri: http://smc-ohana-api-test.herokuapp.com/api/search?action=index&controller=locations&keyword=&location=&org_name=Example%20Agency&utf8=%E2%9C%93
    body:
      encoding: US-ASCII
      string: ''
    headers:
      Accept:
      - application/vnd.ohanapi-v1+json
      User-Agent:
      - Ohanakapa Ruby Gem 1.1.2
      Accept-Encoding:
      - gzip;q=1.0,deflate;q=0.6,identity;q=0.3
  response:
    status:
      code: 200
      message: OK
    headers:
      Server:
      - Cowboy
      Connection:
      - keep-alive
      X-Frame-Options:
      - SAMEORIGIN
      X-Xss-Protection:
      - 1; mode=block
      X-Content-Type-Options:
      - nosniff
      Etag:
      - '"59121a5293834ea61841f279ffa09aee"'
      X-Total-Count:
      - '1'
      Content-Type:
      - application/json; charset=utf-8
      Cache-Control:
      - max-age=0, public
      X-Request-Id:
      - 3c84be92-2b38-483c-b3c8-75612f3b5fc5
      X-Runtime:
      - '0.149638'
      X-Content-Digest:
      - 4f856343f8120566308d2c5db40d64a2978c5dab
      Date:
      - Sat, 15 Aug 2015 18:04:26 GMT
      Age:
      - '0'
      X-Rack-Cache:
      - stale, valid, store
      Content-Length:
      - '2905'
      Via:
      - 1.1 vegur
    body:
      encoding: UTF-8
      string: '[{"id":1689,"active":true,"admin_emails":[],"alternate_name":"The Test
        Spot","coordinates":[-122.4099154,37.7726402],"description":"[NOTE THIS IS
        NOT A REAL ORGANIZATION--THIS IS FOR TESTING PURPOSES OF THIS ALPHA APP] Lorem
        ipsum dolor sit amet, consectetur adipiscing elit. Praesent suscipit metus
        eu orci lobortis dictum. In hac habitasse platea dictumst. Vivamus vulputate,
        neque ut sodales gravida, lorem nunc pharetra ligula, ac cursus sem justo
        a sapien. Duis vitae vestibulum magna. Sed vel augue in justo rhoncus viverra.
        Nam ac felis a purus lobortis porttitor sit amet quis est. Suspendisse vulputate
        nisl quis nisi fermentum aliquet euismod at augue. Sed ultricies, purus dapibus
        tristique dictum, tortor mauris porttitor nulla, at porta nisl sem sed dolor.
        Proin ac hendrerit erat. Duis porta iaculis orci, eu euismod quam tristique
        in. Phasellus nec purus sit amet sapien volutpat egestas.","kind":"Other","latitude":37.7726402,"longitude":-122.4099154,"name":"Example
        Location","short_desc":"[NOTE THIS IS NOT A REAL ENTRY--THIS IS FOR TESTING
        PURPOSES OF THIS ALPHA APP]","slug":"example-location","updated_at":"2015-02-01T20:49:59.311-08:00","url":"http://smc-ohana-api-test.herokuapp.com/api/locations/example-location","address":{"id":1413,"address_1":"2013
        Avenue of the fellows","address_2":"Suite 100","street_1":"2013 Avenue of
        the fellows","street_2":"Suite 100","city":"San Francisco","state_province":"CA","postal_code":"94103"},"organization":{"id":1344,"accreditations":["BBB","State
        Board of Education"],"alternate_name":"Alternate Agency Name","date_incorporated":"1970-01-01","description":"Sample
        organization description. The Public Library inspires learning through innovative
        and visionary programming and services—literacy programs, support for school
        success, access to technology, safe, inviting spaces for youth and families,
        and gathering places that connect the members of the community with a love
        of reading and learning.","email":"info@example.org","funding_sources":["State","Donations","Grants"],"licenses":["State
        Health Inspection License","State Board of Education License"],"name":"Example
        Agency","website":"http://example.org","slug":"example-agency","url":"http://smc-ohana-api-test.herokuapp.com/api/organizations/example-agency","locations_url":"http://smc-ohana-api-test.herokuapp.com/api/organizations/example-agency/locations"},"phones":[{"id":2465,"department":"Information","extension":"123","number":"650
        372-6200","number_type":"voice","vanity_number":"222-555-INFO"},{"id":2466,"department":"Reservations","extension":null,"number":"650
        627-8244","number_type":"fax","vanity_number":null},{"id":2531,"department":"Hotline","extension":null,"number":"800
        372-6200","number_type":"hotline","vanity_number":null},{"id":2532,"department":"Rental
        Assistance","extension":"202","number":"650 372-6200","number_type":"tty","vanity_number":null}]}]'
    http_version: 
  recorded_at: Sat, 15 Aug 2015 18:04:26 GMT
recorded_with: VCR 2.9.3
