---
http_interactions:
- request:
    method: get
    uri: https://ohana-api-test.herokuapp.com/api/locations/san-mateo-free-medical-clinic
    body:
      encoding: US-ASCII
      string: ''
    headers:
      Accept:
      - application/vnd.ohanapi-v1+json
      User-Agent:
      - Ohanakapa Ruby Gem 1.1.2
      Accept-Encoding:
      - gzip;q=1.0,deflate;q=0.6,identity;q=0.3
  response:
    status:
      code: 200
      message: OK
    headers:
      Connection:
      - keep-alive
      Content-Type:
      - application/json; charset=utf-8
      Transfer-Encoding:
      - chunked
      Status:
      - 200 OK
      Strict-Transport-Security:
      - max-age=31536000
      X-Frame-Options:
      - SAMEORIGIN
      X-Xss-Protection:
      - 1; mode=block
      X-Content-Type-Options:
      - nosniff
      Date:
      - Tue, 09 Sep 2014 23:22:58 GMT
      Cache-Control:
      - max-age=0, public
      X-Request-Id:
      - b304acac-21f7-476a-afc2-388f4c686648
      X-Runtime:
      - '0.037082'
      X-Powered-By:
      - Phusion Passenger 4.0.50
      Server:
      - nginx/1.6.1 + Phusion Passenger 4.0.50
      Via:
      - 1.1 vegur
    body:
      encoding: UTF-8
      string: '{"id":19,"accessibility":["Elevator","Ramp","Wheelchair"],"admin_emails":[],"coordinates":[-122.2931236,37.5326941],"description":"Provides
        free medical and dental care to those in need. Offers basic medical care for
        adults.","emails":["smcmed@samaritanhouse.com"],"hours":"Monday-Friday, 9-12,
        1-4","languages":["Spanish"],"latitude":37.5326941,"longitude":-122.2931236,"name":"San
        Mateo Free Medical Clinic","short_desc":"Provides free medical and dental
        care to those in need. Offers basic medical care for adults.","slug":"san-mateo-free-medical-clinic","transportation":"SAMTRANS
        stops within 1 block.","updated_at":"2014-07-15T13:20:13.307-07:00","urls":["http://www.samaritanhouse.com"],"url":"https://ohana-api-test.herokuapp.com/api/locations/san-mateo-free-medical-clinic","address":{"id":19,"street":"19
        West 39th Avenue","city":"San Mateo","state":"CA","zip":"94403"},"contacts":[{"email":null,"extension":null,"fax":null,"id":27,"name":"Sharon
        Petersen","phone":null,"title":"Administrator"}],"faxes":[{"id":19,"number":"650
        578-0440","department":null}],"mail_address":{"id":19,"attention":"San Mateo
        Free Medical/Dental","street":"19 West 39th Avenue","city":"San Mateo","state":"CA","zip":"94403"},"phones":[{"id":19,"department":null,"extension":null,"number":"650
        578-0400","number_type":null,"vanity_number":null}],"services":[{"id":19,"audience":null,"description":"Provides
        free medical and dental care to those in need. Offers basic medical care for
        adults.","eligibility":"Low-income person without access to health care","fees":"None.","funding_sources":["Donations","Grants"],"how_to_apply":"Call
        for screening appointment (650-347-3648).","keywords":["HEALTH SERVICES","Outpatient
        Care","Community Clinics"],"name":"San Mateo Free Medical Clinic","service_areas":["Belmont"],"short_desc":null,"urls":[],"wait":"Varies.","updated_at":"2014-07-15T13:20:13.302-07:00","categories":[]}],"organization":{"id":5,"name":"Samaritan
        House","slug":"samaritan-house","urls":[],"url":"https://ohana-api-test.herokuapp.com/api/organizations/samaritan-house","locations_url":"https://ohana-api-test.herokuapp.com/api/organizations/samaritan-house/locations"}}'
    http_version: 
  recorded_at: Tue, 09 Sep 2014 23:22:59 GMT
- request:
    method: get
    uri: https://ohana-api-test.herokuapp.com/api/search?keyword=food
    body:
      encoding: US-ASCII
      string: ''
    headers:
      Accept:
      - application/vnd.ohanapi-v1+json
      User-Agent:
      - Ohanakapa Ruby Gem 1.1.2
      Accept-Encoding:
      - gzip;q=1.0,deflate;q=0.6,identity;q=0.3
  response:
    status:
      code: 200
      message: OK
    headers:
      Connection:
      - keep-alive
      Content-Type:
      - application/json; charset=utf-8
      Transfer-Encoding:
      - chunked
      Status:
      - 200 OK
      Strict-Transport-Security:
      - max-age=31536000
      X-Frame-Options:
      - SAMEORIGIN
      X-Xss-Protection:
      - 1; mode=block
      X-Content-Type-Options:
      - nosniff
      Link:
      - <https://ohana-api-test.herokuapp.com/api/search?keyword=food&page=5>; rel="last",
        <https://ohana-api-test.herokuapp.com/api/search?keyword=food&page=2>; rel="next"
      X-Total-Count:
      - '5'
      X-Total-Pages:
      - '5'
      X-Current-Page:
      - '1'
      X-Next-Page:
      - '2'
      Date:
      - Tue, 09 Sep 2014 23:22:59 GMT
      Cache-Control:
      - max-age=0, public
      X-Request-Id:
      - 6a9c4412-41eb-4377-a3e6-4d51f4a18b3d
      X-Runtime:
      - '0.029334'
      X-Powered-By:
      - Phusion Passenger 4.0.50
      Server:
      - nginx/1.6.1 + Phusion Passenger 4.0.50
      Via:
      - 1.1 vegur
    body:
      encoding: UTF-8
      string: '[{"id":6,"admin_emails":[],"coordinates":[-122.1805905,37.4480204],"description":"A
        multipurpose center offering a wide variety of recreational, education and
        cultural activities. Lifelong learning courses cover topics such as music,
        art, languages, etc., are hosted at this location. Little House offers a large
        variety of classes including arts and crafts, jewelry, languages, current
        events, lapidary, woodwork, painting, and fitness courses (yoga, strength
        straining, tai chi). There are monthly art and cultural lectures, movie showings,
        and a computer center. Recreation activities include mah jong, pinochle, ballroom
        dancing, bridge, trips and tours. Partners with the Sequoia Adult Education
        Program. The Alzheimer''s Cafe, open the third Tuesday of every month from
        2:00 - 4:00 pm, is a place that brings together people liviing with dementia,
        their families, and their caregivers. Free and no registration is needed.
        The Little House Community Service Desk offers information and referrals regarding
        social service issues, such as housing, food, transportation, health insurance
        counseling, and estate planning. Massage, podiatry, and acupuncture are available
        by appointment. Lunch is served Monday-Friday, 11:30 am-1:00 pm. Prices vary
        according to selection.","latitude":37.4480204,"longitude":-122.1805905,"name":"Little
        House","short_desc":"A multipurpose senior citizens'' center.","slug":"little-house","updated_at":"2014-07-15T12:51:52.581-07:00","urls":["http://www.penvol.org/littlehouse"],"contacts_url":"https://ohana-api-test.herokuapp.com/api/locations/little-house/contacts","faxes_url":"https://ohana-api-test.herokuapp.com/api/locations/little-house/faxes","services_url":"https://ohana-api-test.herokuapp.com/api/locations/little-house/services","url":"https://ohana-api-test.herokuapp.com/api/locations/little-house","address":{"id":6,"street":"800
        Middle Avenue","city":"Menlo Park","state":"CA","zip":"94025-9881"},"organization":{"id":2,"name":"Peninsula
        Volunteers","slug":"peninsula-volunteers","urls":[],"url":"https://ohana-api-test.herokuapp.com/api/organizations/peninsula-volunteers","locations_url":"https://ohana-api-test.herokuapp.com/api/organizations/peninsula-volunteers/locations"},"phones":[{"id":6,"department":null,"extension":null,"number":"650
        326-2025","number_type":null,"vanity_number":null}]}]'
    http_version: 
  recorded_at: Tue, 09 Sep 2014 23:22:59 GMT
recorded_with: VCR 2.9.2
