---
http_interactions:
- request:
    method: get
    uri: http://ohana-api-test.herokuapp.com/api/search?action=index&controller=organizations&keyword=
    body:
      encoding: US-ASCII
      string: ''
    headers:
      Accept:
      - application/vnd.ohanapi-v1+json
      User-Agent:
      - Ohanakapa Ruby Gem 1.1.1
      Accept-Encoding:
      - gzip;q=1.0,deflate;q=0.6,identity;q=0.3
  response:
    status:
      code: 200
      message: OK
    headers:
      Connection:
      - keep-alive
      Server:
      - nginx/1.6.0 + Phusion Passenger 4.0.46
      Date:
      - Wed, 23 Jul 2014 23:25:37 GMT
      X-Powered-By:
      - Phusion Passenger 4.0.46
      X-Runtime:
      - '0.025205'
      X-Request-Id:
      - a2e0cca9-3d04-42b8-8fdc-d40397b2b5ce
      Cache-Control:
      - max-age=0, private, must-revalidate
      X-Next-Page:
      - '2'
      X-Current-Page:
      - '1'
      X-Total-Pages:
      - '24'
      X-Total-Count:
      - '24'
      Link:
      - <http://ohana-api-test.herokuapp.com/api/search?keyword=&page=24>; rel="last",
        <http://ohana-api-test.herokuapp.com/api/search?keyword=&page=2>; rel="next"
      X-Content-Type-Options:
      - nosniff
      X-Xss-Protection:
      - 1; mode=block
      X-Frame-Options:
      - SAMEORIGIN
      Status:
      - 200 OK
      Transfer-Encoding:
      - chunked
      Content-Type:
      - application/json; charset=utf-8
      Via:
      - 1.1 vegur
    body:
      encoding: UTF-8
      string: '[{"id":1,"admin_emails":[],"coordinates":[-122.213221,37.477227],"description":"A
        walk-in center for older adults that provides social services, wellness, recreational,
        educational and creative activities including arts and crafts, computer classes
        and gardening classes. Coffee and healthy breakfasts are available daily.
        A hot lunch is served Tuesday-Friday for persons age 60 or over and spouse.        Provides
        case management (including in-home assessments) and bilingual information
        and referral about community services to persons age 60 or over on questions
        of housing, employment, household help, recreation and social activities,
        home delivered meals, health and counseling services and services to shut-ins.
        Health insurance and legal counseling is available by appointment. Lectures
        on a variety of health and fitness topics are held monthly in both English
        and Spanish.  Provides a variety of physical fitness opportunities, including
        a garden club, yoga, tai chi, soul line dance and aerobics classes geared
        toward older adults. Also provides free monthly blood pressure screenings,
        quarterly blood glucose monitoring and health screenings by a visiting nurse.
        Offers a Brown Bag Program in which low-income seniors can receive a bag of
        groceries each week for a membership fee of $10 a year. Offers Spanish lessons.
        Formerly known as Peninsula Family Service, Fair Oaks Intergenerational Center.
        Formerly known as the Fair Oaks Senior Center. Formerly known as Family Service
        Agency of San Mateo County, Fair Oaks Intergenerational Center.","latitude":37.477227,"longitude":-122.213221,"name":"Fair
        Oaks Adult Activity Center","short_desc":"A multipurpose senior citizens''
        center serving the Redwood City area.","slug":"fair-oaks-adult-activity-center","updated_at":"2014-05-09T20:49:18.836-07:00","urls":["http://www.peninsulafamilyservice.org"],"contacts_url":"http://ohana-api-test.herokuapp.com/api/locations/fair-oaks-adult-activity-center/contacts","faxes_url":"http://ohana-api-test.herokuapp.com/api/locations/fair-oaks-adult-activity-center/faxes","services_url":"http://ohana-api-test.herokuapp.com/api/locations/fair-oaks-adult-activity-center/services","url":"http://ohana-api-test.herokuapp.com/api/locations/fair-oaks-adult-activity-center","address":{"id":1,"street":"2600
        Middlefield Road","city":"Redwood City","state":"CA","zip":"94063"},"organization":{"id":1,"name":"Peninsula
        Family Service","slug":"peninsula-family-service","urls":[],"url":"http://ohana-api-test.herokuapp.com/api/organizations/peninsula-family-service","locations_url":"http://ohana-api-test.herokuapp.com/api/organizations/peninsula-family-service/locations"},"phones":[{"id":1,"department":null,"extension":null,"number":"650
        780-7525","number_type":null,"vanity_number":null}]}]'
    http_version: 
  recorded_at: Wed, 23 Jul 2014 23:25:37 GMT
- request:
    method: get
    uri: http://ohana-api-test.herokuapp.com/api/search?action=index&controller=organizations&keyword=maceo&location=&org_name=&utf8=%E2%9C%93
    body:
      encoding: US-ASCII
      string: ''
    headers:
      Accept:
      - application/vnd.ohanapi-v1+json
      User-Agent:
      - Ohanakapa Ruby Gem 1.1.1
      Accept-Encoding:
      - gzip;q=1.0,deflate;q=0.6,identity;q=0.3
  response:
    status:
      code: 200
      message: OK
    headers:
      Connection:
      - keep-alive
      Server:
      - nginx/1.6.0 + Phusion Passenger 4.0.46
      Date:
      - Wed, 23 Jul 2014 23:25:38 GMT
      X-Powered-By:
      - Phusion Passenger 4.0.46
      X-Runtime:
      - '0.029242'
      X-Request-Id:
      - eba8b2b0-2e0a-4acf-bba5-b2d134ad4a5a
      Cache-Control:
      - max-age=0, private, must-revalidate
      X-Current-Page:
      - '1'
      X-Total-Pages:
      - '1'
      X-Total-Count:
      - '1'
      X-Content-Type-Options:
      - nosniff
      X-Xss-Protection:
      - 1; mode=block
      X-Frame-Options:
      - SAMEORIGIN
      Status:
      - 200 OK
      Transfer-Encoding:
      - chunked
      Content-Type:
      - application/json; charset=utf-8
      Via:
      - 1.1 vegur
    body:
      encoding: UTF-8
      string: '[{"id":22,"admin_emails":["foo@bar.com"],"coordinates":[-73.1968254,42.878036],"description":"[NOTE
        THIS IS NOT A REAL ORGANIZATION--THIS IS FOR TESTTING PURPOSES OF THIS ALPHA
        APP] Lorem ipsum dolor sit amet, consectetur adipiscing elit. Praesent suscipit
        metus eu orci lobortis dictum. In hac habitasse platea dictumst. Vivamus vulputate,
        neque ut sodales gravida, lorem nunc pharetra ligula, ac cursus sem justo
        a sapien. Duis vitae vestibulum magna. Sed vel augue in justo rhoncus viverra.
        Nam ac felis a purus lobortis porttitor sit amet quis est. Suspendisse vulputate
        nisl quis nisi fermentum aliquet euismod at augue. Sed ultricies, purus dapibus
        tristique dictum, tortor mauris porttitor nulla, at porta nisl sem sed dolor.
        Proin ac hendrerit erat. Duis porta iaculis orci, eu euismod quam tristique
        in. Phasellus nec purus sit amet sapien volutpat egestas.","latitude":42.878036,"longitude":-73.1968254,"name":"San
        Maceo Agency","short_desc":"[NOTE THIS IS NOT A REAL ENTRY--THIS IS FOR TESTING
        PURPOSES OF THIS ALPHA APP]","slug":"san-maceo-agency","updated_at":"2014-05-22T17:31:08.727-07:00","urls":["http://www.smchealth.org","http://www.example.com","http://www.example2.com"],"contacts_url":"http://ohana-api-test.herokuapp.com/api/locations/san-maceo-agency/contacts","faxes_url":"http://ohana-api-test.herokuapp.com/api/locations/san-maceo-agency/faxes","services_url":"http://ohana-api-test.herokuapp.com/api/locations/san-maceo-agency/services","url":"http://ohana-api-test.herokuapp.com/api/locations/san-maceo-agency","address":{"id":21,"street":"2013
        Avenue of the fellows, Suite 100","city":"Burlington","state":"VT","zip":"05201"},"organization":{"id":8,"name":"SanMaceo
        Example Agency.","slug":"sanmaceo-example-agency","urls":[],"url":"http://ohana-api-test.herokuapp.com/api/organizations/sanmaceo-example-agency","locations_url":"http://ohana-api-test.herokuapp.com/api/organizations/sanmaceo-example-agency/locations"},"phones":[{"id":21,"department":"Information","extension":null,"number":"650
        372-6200","number_type":"TTY","vanity_number":null},{"id":22,"department":"Reservations","extension":null,"number":"650
        372-6200","number_type":null,"vanity_number":null}]}]'
    http_version: 
  recorded_at: Wed, 23 Jul 2014 23:25:38 GMT
recorded_with: VCR 2.9.2
