---
http_interactions:
- request:
    method: get
    uri: http://smc-ohana-api-test.herokuapp.com/api/search?action=index&controller=locations
    body:
      encoding: US-ASCII
      string: ''
    headers:
      Accept:
      - application/vnd.ohanapi-v1+json
      User-Agent:
      - Ohanakapa Ruby Gem 1.1.2
      Accept-Encoding:
      - gzip;q=1.0,deflate;q=0.6,identity;q=0.3
  response:
    status:
      code: 200
      message: OK
    headers:
      Server:
      - Cowboy
      Connection:
      - keep-alive
      X-Frame-Options:
      - SAMEORIGIN
      X-Xss-Protection:
      - 1; mode=block
      X-Content-Type-Options:
      - nosniff
      Etag:
      - '"c464f727ed8f9567e522a8adc6f024ef"'
      Link:
      - <http://smc-ohana-api-test.herokuapp.com/api/search?page=343>; rel="last",
        <http://smc-ohana-api-test.herokuapp.com/api/search?page=2>; rel="next"
      X-Total-Count:
      - '343'
      Content-Type:
      - application/json; charset=utf-8
      Cache-Control:
      - max-age=0, public
      X-Request-Id:
      - e3488257-b727-40fb-a971-0547b2f550b7
      X-Runtime:
      - '3.222846'
      X-Content-Digest:
      - a315da6510efa7aac563b1f949dd53cda88db56a
      Date:
      - Sat, 15 Aug 2015 18:04:27 GMT
      Age:
      - '0'
      X-Rack-Cache:
      - stale, valid, store
      Content-Length:
      - '1500'
      Via:
      - 1.1 vegur
    body:
      encoding: UTF-8
      string: '[{"id":1371,"active":true,"admin_emails":[],"alternate_name":null,"coordinates":[-122.138615,37.444609],"description":"A
        collection of 132,000 items including large print and foreign language books,
        magazines and newspapers, DVDs, audio and video cassettes, compact discs,
        paperbacks, talking books and telephone directories. Business as well as research
        reference is available. Also offers consumer information, photocopiers, bus
        schedules and the files of the Palo Alto Historical Association and Internet
        PCs.","kind":"Libraries","latitude":37.444609,"longitude":-122.138615,"name":"Main
        Library","short_desc":null,"slug":"main-library","updated_at":"2014-11-30T19:05:11.640-08:00","url":"http://smc-ohana-api-test.herokuapp.com/api/locations/main-library","address":{"id":1111,"address_1":"1213
        Newell Road","address_2":null,"street_1":"1213 Newell Road","street_2":null,"city":"Palo
        Alto","state_province":"CA","postal_code":"94303"},"organization":{"id":1296,"accreditations":[],"alternate_name":null,"date_incorporated":null,"description":null,"email":null,"funding_sources":[],"licenses":[],"name":"Palo
        Alto City Library","website":null,"slug":"palo-alto-city-library","url":"http://smc-ohana-api-test.herokuapp.com/api/organizations/palo-alto-city-library","locations_url":"http://smc-ohana-api-test.herokuapp.com/api/organizations/palo-alto-city-library/locations"},"phones":[{"id":1849,"department":null,"extension":null,"number":"650
        329-2436","number_type":null,"vanity_number":null}]}]'
    http_version: 
  recorded_at: Sat, 15 Aug 2015 18:04:27 GMT
- request:
    method: get
    uri: http://smc-ohana-api-test.herokuapp.com/api/search?action=index&controller=locations&keyword=&location=94403
    body:
      encoding: US-ASCII
      string: ''
    headers:
      Accept:
      - application/vnd.ohanapi-v1+json
      User-Agent:
      - Ohanakapa Ruby Gem 1.1.2
      Accept-Encoding:
      - gzip;q=1.0,deflate;q=0.6,identity;q=0.3
  response:
    status:
      code: 200
      message: OK
    headers:
      Server:
      - Cowboy
      Connection:
      - keep-alive
      X-Frame-Options:
      - SAMEORIGIN
      X-Xss-Protection:
      - 1; mode=block
      X-Content-Type-Options:
      - nosniff
      Etag:
      - '"cf780f26968d2fa37f3f3a0341ff5e09"'
      Link:
      - <http://smc-ohana-api-test.herokuapp.com/api/search?keyword=&location=94403&page=100>;
        rel="last", <http://smc-ohana-api-test.herokuapp.com/api/search?keyword=&location=94403&page=2>;
        rel="next"
      X-Total-Count:
      - '100'
      Content-Type:
      - application/json; charset=utf-8
      Cache-Control:
      - max-age=0, public
      X-Request-Id:
      - 0723621c-fac2-45a8-b2ee-adc45e3360c7
      X-Runtime:
      - '0.049253'
      X-Content-Digest:
      - 0be61c8527c31c014dcf012e68de29688477b579
      Date:
      - Sat, 15 Aug 2015 18:04:27 GMT
      Age:
      - '0'
      X-Rack-Cache:
      - stale, valid, store
      Content-Length:
      - '2154'
      Via:
      - 1.1 vegur
    body:
      encoding: UTF-8
      string: '[{"id":1407,"active":true,"admin_emails":[],"alternate_name":null,"coordinates":[-122.3048749,37.5336608],"description":"Provides
        general reading materials and reference services to adults, teenagers and
        children. Loans cassette tapes (chidlren''s only), CDs and large print materials.
        Also offers programs for adults and school-age children, a summer reading
        program for children and weekly preschool and PJ story hours. Services to
        homebound persons can be arranged through this library. Has copies of agendas
        and minutes of the San Mateo City Council, San Mateo City Planning Commission,
        County Board of Supervisors, County Board of Education, local environmental
        impact reports and other government documents relevant to the city and county
        of San Mateo. This library participates in the Peninsula Library System and
        offers access to its computerized catalog and other shared on-line databases.
        Also has 12 Internet accessible computers and free wireless.","kind":"Libraries","latitude":37.5336608,"longitude":-122.3048749,"name":"Hillsdale
        Community Library","short_desc":"Provides general reading materials and reference
        services to adults, teenagers and children.","slug":"hillsdale-community-library","updated_at":"2014-11-30T19:05:12.449-08:00","url":"http://smc-ohana-api-test.herokuapp.com/api/locations/hillsdale-community-library","address":{"id":1147,"address_1":"205
        West Hillsdale Blvd.","address_2":null,"street_1":"205 West Hillsdale Blvd.","street_2":null,"city":"San
        Mateo","state_province":"CA","postal_code":"94403-4217"},"organization":{"id":1303,"accreditations":[],"alternate_name":null,"date_incorporated":null,"description":null,"email":null,"funding_sources":[],"licenses":[],"name":"San
        Mateo City Public Library","website":null,"slug":"san-mateo-city-public-library","url":"http://smc-ohana-api-test.herokuapp.com/api/organizations/san-mateo-city-public-library","locations_url":"http://smc-ohana-api-test.herokuapp.com/api/organizations/san-mateo-city-public-library/locations"},"phones":[{"id":1922,"department":"24-hour
        recorded message","extension":null,"number":"650 522-7880","number_type":null,"vanity_number":null}]}]'
    http_version: 
  recorded_at: Sat, 15 Aug 2015 18:04:27 GMT
recorded_with: VCR 2.9.3
