---
http_interactions:
- request:
    method: get
    uri: http://smc-ohana-api-test.herokuapp.com/api/search?action=index&controller=locations&keyword=
    body:
      encoding: US-ASCII
      string: ''
    headers:
      Accept:
      - application/vnd.ohanapi-v1+json
      User-Agent:
      - Ohanakapa Ruby Gem 1.1.2
      Accept-Encoding:
      - gzip;q=1.0,deflate;q=0.6,identity;q=0.3
  response:
    status:
      code: 200
      message: OK
    headers:
      Server:
      - Cowboy
      Connection:
      - keep-alive
      Date:
      - Sat, 14 Feb 2015 20:29:52 GMT
      Status:
      - 200 OK
      X-Frame-Options:
      - SAMEORIGIN
      X-Xss-Protection:
      - 1; mode=block
      X-Content-Type-Options:
      - nosniff
      Etag:
      - '"5512e432b83396d7b7aa3a4668f6dfae"'
      Link:
      - <http://smc-ohana-api-test.herokuapp.com/api/search?keyword=&page=343>; rel="last",
        <http://smc-ohana-api-test.herokuapp.com/api/search?keyword=&page=2>; rel="next"
      X-Total-Count:
      - '343'
      Content-Type:
      - application/json; charset=utf-8
      Cache-Control:
      - max-age=0, public
      X-Request-Id:
      - 43d83cc6-4fc0-4511-9503-343dca0150c4
      X-Runtime:
      - '9.324349'
      X-Content-Digest:
      - c65c56b962a54df8990ff342bc770ec58c4e5302
      Content-Length:
      - '1507'
      Age:
      - '0'
      X-Rack-Cache:
      - stale, valid, store
      Via:
      - 1.1 vegur
    body:
      encoding: UTF-8
      string: '[{"id":1371,"active":true,"admin_emails":[],"alternate_name":null,"coordinates":[-122.138615,37.444609],"description":"A
        collection of 132,000 items including large print and foreign language books,
        magazines and newspapers, DVDs, audio and video cassettes, compact discs,
        paperbacks, talking books and telephone directories. Business as well as research
        reference is available. Also offers consumer information, photocopiers, bus
        schedules and the files of the Palo Alto Historical Association and Internet
        PCs.","kind":"Libraries","latitude":37.444609,"longitude":-122.138615,"name":"Main
        Library","short_desc":null,"slug":"main-library","updated_at":"2014-11-30T19:05:11.640-08:00","url":"http://smc-ohana-api-test.herokuapp.com/api/locations/main-library","address":{"id":1111,"street":"1213
        Newell Road","street_1":"1213 Newell Road","street_2":null,"city":"Palo Alto","state":"CA","state_province":"CA","postal_code":"94303","zip":"94303"},"organization":{"id":1296,"accreditations":[],"alternate_name":null,"date_incorporated":null,"description":null,"email":null,"funding_sources":[],"licenses":[],"name":"Palo
        Alto City Library","website":null,"slug":"palo-alto-city-library","url":"http://smc-ohana-api-test.herokuapp.com/api/organizations/palo-alto-city-library","locations_url":"http://smc-ohana-api-test.herokuapp.com/api/organizations/palo-alto-city-library/locations"},"phones":[{"id":1849,"department":null,"extension":null,"number":"650
        329-2436","number_type":null,"vanity_number":null}]}]'
    http_version: 
  recorded_at: Sat, 14 Feb 2015 20:29:52 GMT
- request:
    method: get
    uri: http://smc-ohana-api-test.herokuapp.com/api/search?action=index&controller=locations&keyword=clinic&location=&org_name=&utf8=%E2%9C%93
    body:
      encoding: US-ASCII
      string: ''
    headers:
      Accept:
      - application/vnd.ohanapi-v1+json
      User-Agent:
      - Ohanakapa Ruby Gem 1.1.2
      Accept-Encoding:
      - gzip;q=1.0,deflate;q=0.6,identity;q=0.3
  response:
    status:
      code: 200
      message: OK
    headers:
      Server:
      - Cowboy
      Connection:
      - keep-alive
      Date:
      - Sat, 14 Feb 2015 20:29:53 GMT
      Status:
      - 200 OK
      X-Frame-Options:
      - SAMEORIGIN
      X-Xss-Protection:
      - 1; mode=block
      X-Content-Type-Options:
      - nosniff
      Etag:
      - '"721348da1eb696dcc8c305d404c1f6aa"'
      Link:
      - <http://smc-ohana-api-test.herokuapp.com/api/search?keyword=clinic&location=&org_name=&page=42&utf8=%E2%9C%93>;
        rel="last", <http://smc-ohana-api-test.herokuapp.com/api/search?keyword=clinic&location=&org_name=&page=2&utf8=%E2%9C%93>;
        rel="next"
      X-Total-Count:
      - '42'
      Content-Type:
      - application/json; charset=utf-8
      Cache-Control:
      - max-age=0, public
      X-Request-Id:
      - ca9f943b-d186-4cc3-89aa-5995be4a8d8b
      X-Runtime:
      - '0.080507'
      X-Content-Digest:
      - 0806f96d0c3081cdeaf6bf3aab55c40f31bfae20
      Content-Length:
      - '2643'
      Age:
      - '0'
      X-Rack-Cache:
      - miss, store
      Via:
      - 1.1 vegur
    body:
      encoding: UTF-8
      string: '[{"id":1622,"active":true,"admin_emails":[],"alternate_name":null,"coordinates":[-122.180129,37.4343609],"description":"Assists
        persons needing medical care to determine the appropriate clinic and set up
        an appointment. Many clinics require referral from another doctor. These include
        (but are not limited to) allergy, cardiology, chest, gastrointestinal, genetic
        counseling, neurology, oncology, orthopedic, sleep disorders and diagnostic.
        Persons not having a personal physician can be examined in the general medical
        clinic and are directed to a specialty clinic if appropriate. Specialty clinics
        include dermatology, eye, internal medicine and psychiatric outpatient, among
        others.","kind":"Human Services","latitude":37.4343609,"longitude":-122.180129,"name":"Stanford
        Hospital and Clinics., Clinic Information","short_desc":"Assists persons needing
        medical care to determine the appropriate clinic and set up an appointment.","slug":"stanford-hospital-and-clinics-clinic-information","updated_at":"2014-11-30T19:05:17.015-08:00","url":"http://smc-ohana-api-test.herokuapp.com/api/locations/stanford-hospital-and-clinics-clinic-information","address":{"id":1355,"street":"300
        Pasteur Drive","street_1":"300 Pasteur Drive","street_2":null,"city":"Stanford","state":"CA","state_province":"CA","postal_code":"94305","zip":"94305"},"organization":{"id":1334,"accreditations":[],"alternate_name":null,"date_incorporated":null,"description":null,"email":null,"funding_sources":[],"licenses":[],"name":"Stanford
        University Medical Center","website":null,"slug":"stanford-university-medical-center","url":"http://smc-ohana-api-test.herokuapp.com/api/organizations/stanford-university-medical-center","locations_url":"http://smc-ohana-api-test.herokuapp.com/api/organizations/stanford-university-medical-center/locations"},"phones":[{"id":2335,"department":"24
        hours daily","extension":null,"number":"800 756-9000","number_type":null,"vanity_number":null},{"id":2336,"department":null,"extension":null,"number":"650-497-8000","number_type":null,"vanity_number":null},{"id":2337,"department":null,"extension":null,"number":"800
        756-9000","number_type":null,"vanity_number":null},{"id":2338,"department":null,"extension":null,"number":"650
        497-8000","number_type":null,"vanity_number":null},{"id":2339,"department":"Advice
        Nurse","extension":null,"number":"650 497-8820","number_type":null,"vanity_number":null},{"id":2340,"department":"Referral
        Center","extension":null,"number":"800 756-9000","number_type":null,"vanity_number":null},{"id":2341,"department":null,"extension":null,"number":"650-326-4976","number_type":null,"vanity_number":null}]}]'
    http_version: 
  recorded_at: Sat, 14 Feb 2015 20:29:53 GMT
recorded_with: VCR 2.9.3
