---
http_interactions:
- request:
    method: get
    uri: http://smc-ohana-api-test.herokuapp.com/api/search?action=index&controller=locations
    body:
      encoding: US-ASCII
      string: ''
    headers:
      Accept:
      - application/vnd.ohanapi-v1+json
      User-Agent:
      - Ohanakapa Ruby Gem 1.1.2
      Accept-Encoding:
      - gzip;q=1.0,deflate;q=0.6,identity;q=0.3
  response:
    status:
      code: 200
      message: OK
    headers:
      Server:
      - Cowboy
      Connection:
      - close
      Date:
      - Fri, 05 Dec 2014 21:05:46 GMT
      Status:
      - 200 OK
      X-Frame-Options:
      - SAMEORIGIN
      X-Xss-Protection:
      - 1; mode=block
      X-Content-Type-Options:
      - nosniff
      Etag:
      - '"a2e2ed6de444dbc07a28f1804e50050c"'
      Link:
      - <http://smc-ohana-api-test.herokuapp.com/api/search?page=343>; rel="last",
        <http://smc-ohana-api-test.herokuapp.com/api/search?page=2>; rel="next"
      X-Total-Count:
      - '343'
      Content-Type:
      - application/json; charset=utf-8
      Cache-Control:
      - max-age=0, public
      X-Request-Id:
      - 81a16e7c-4e32-4894-8760-a5e80608f200
      X-Runtime:
      - '0.022723'
      X-Rack-Cache:
      - pass
      Via:
      - 1.1 vegur
    body:
      encoding: UTF-8
      string: '[{"id":1371,"active":true,"admin_emails":[],"alternate_name":null,"coordinates":[-122.138615,37.444609],"description":"A
        collection of 132,000 items including large print and foreign language books,
        magazines and newspapers, DVDs, audio and video cassettes, compact discs,
        paperbacks, talking books and telephone directories. Business as well as research
        reference is available. Also offers consumer information, photocopiers, bus
        schedules and the files of the Palo Alto Historical Association and Internet
        PCs.","kind":"Libraries","latitude":37.444609,"longitude":-122.138615,"name":"Main
        Library","short_desc":null,"slug":"main-library","updated_at":"2014-11-30T19:05:11.640-08:00","url":"http://smc-ohana-api-test.herokuapp.com/api/locations/main-library","address":{"id":1111,"street":"1213
        Newell Road","street_1":"1213 Newell Road","street_2":null,"city":"Palo Alto","state":"CA","state_province":"CA","postal_code":"94303","zip":"94303"},"organization":{"id":1296,"accreditations":[],"alternate_name":null,"date_incorporated":null,"description":null,"email":null,"funding_sources":[],"licenses":[],"name":"Palo
        Alto City Library","website":null,"slug":"palo-alto-city-library","url":"http://smc-ohana-api-test.herokuapp.com/api/organizations/palo-alto-city-library","locations_url":"http://smc-ohana-api-test.herokuapp.com/api/organizations/palo-alto-city-library/locations"},"phones":[{"id":1849,"department":null,"extension":null,"number":"650
        329-2436","number_type":null,"vanity_number":null}]}]'
    http_version: 
  recorded_at: Fri, 05 Dec 2014 21:05:46 GMT
- request:
    method: get
    uri: http://smc-ohana-api-test.herokuapp.com/api/search?action=index&controller=locations&keyword=&location=94403&org_name=&utf8=%E2%9C%93
    body:
      encoding: US-ASCII
      string: ''
    headers:
      Accept:
      - application/vnd.ohanapi-v1+json
      User-Agent:
      - Ohanakapa Ruby Gem 1.1.2
      Accept-Encoding:
      - gzip;q=1.0,deflate;q=0.6,identity;q=0.3
  response:
    status:
      code: 200
      message: OK
    headers:
      Server:
      - Cowboy
      Connection:
      - close
      Date:
      - Fri, 05 Dec 2014 21:05:47 GMT
      Status:
      - 200 OK
      X-Frame-Options:
      - SAMEORIGIN
      X-Xss-Protection:
      - 1; mode=block
      X-Content-Type-Options:
      - nosniff
      Etag:
      - '"7c164ce567ad34ac165ecebbac216d2f"'
      Link:
      - <http://smc-ohana-api-test.herokuapp.com/api/search?keyword=&location=94403&org_name=&page=100&utf8=%E2%9C%93>;
        rel="last", <http://smc-ohana-api-test.herokuapp.com/api/search?keyword=&location=94403&org_name=&page=2&utf8=%E2%9C%93>;
        rel="next"
      X-Total-Count:
      - '100'
      Content-Type:
      - application/json; charset=utf-8
      Cache-Control:
      - max-age=0, public
      X-Request-Id:
      - 1a49cd67-5a0d-45bf-8107-0ea74b411cb1
      X-Runtime:
      - '0.046579'
      X-Rack-Cache:
      - pass
      Via:
      - 1.1 vegur
    body:
      encoding: UTF-8
      string: '[{"id":1407,"active":true,"admin_emails":[],"alternate_name":null,"coordinates":[-122.3048749,37.5336608],"description":"Provides
        general reading materials and reference services to adults, teenagers and
        children. Loans cassette tapes (chidlren''s only), CDs and large print materials.
        Also offers programs for adults and school-age children, a summer reading
        program for children and weekly preschool and PJ story hours. Services to
        homebound persons can be arranged through this library. Has copies of agendas
        and minutes of the San Mateo City Council, San Mateo City Planning Commission,
        County Board of Supervisors, County Board of Education, local environmental
        impact reports and other government documents relevant to the city and county
        of San Mateo. This library participates in the Peninsula Library System and
        offers access to its computerized catalog and other shared on-line databases.
        Also has 12 Internet accessible computers and free wireless.","kind":"Libraries","latitude":37.5336608,"longitude":-122.3048749,"name":"Hillsdale
        Community Library","short_desc":"Provides general reading materials and reference
        services to adults, teenagers and children.","slug":"hillsdale-community-library","updated_at":"2014-11-30T19:05:12.449-08:00","url":"http://smc-ohana-api-test.herokuapp.com/api/locations/hillsdale-community-library","address":{"id":1147,"street":"205
        West Hillsdale Blvd.","street_1":"205 West Hillsdale Blvd.","street_2":null,"city":"San
        Mateo","state":"CA","state_province":"CA","postal_code":"94403-4217","zip":"94403-4217"},"organization":{"id":1303,"accreditations":[],"alternate_name":null,"date_incorporated":null,"description":null,"email":null,"funding_sources":[],"licenses":[],"name":"San
        Mateo City Public Library","website":null,"slug":"san-mateo-city-public-library","url":"http://smc-ohana-api-test.herokuapp.com/api/organizations/san-mateo-city-public-library","locations_url":"http://smc-ohana-api-test.herokuapp.com/api/organizations/san-mateo-city-public-library/locations"},"phones":[{"id":1922,"department":"24-hour
        recorded message","extension":null,"number":"650 522-7880","number_type":null,"vanity_number":null}]}]'
    http_version: 
  recorded_at: Fri, 05 Dec 2014 21:05:46 GMT
recorded_with: VCR 2.9.3
