---
http_interactions:
- request:
    method: get
    uri: http://smc-ohana-api-test.herokuapp.com/api/search?action=index&controller=locations&keyword=
    body:
      encoding: US-ASCII
      string: ''
    headers:
      Accept:
      - application/vnd.ohanapi-v1+json
      User-Agent:
      - Ohanakapa Ruby Gem 1.1.2
      Accept-Encoding:
      - gzip;q=1.0,deflate;q=0.6,identity;q=0.3
  response:
    status:
      code: 200
      message: OK
    headers:
      Server:
      - Cowboy
      Connection:
      - close
      Date:
      - Thu, 28 Aug 2014 07:10:06 GMT
      Status:
      - 200 OK
      X-Frame-Options:
      - SAMEORIGIN
      X-Xss-Protection:
      - 1; mode=block
      X-Content-Type-Options:
      - nosniff
      Link:
      - <http://smc-ohana-api-test.herokuapp.com/api/search?keyword=&page=343>; rel="last",
        <http://smc-ohana-api-test.herokuapp.com/api/search?keyword=&page=2>; rel="next"
      X-Total-Count:
      - '343'
      X-Total-Pages:
      - '343'
      X-Current-Page:
      - '1'
      X-Next-Page:
      - '2'
      Content-Type:
      - application/json; charset=utf-8
      Etag:
      - '"976f4ec63adb419df1a1ff1dc62ea9f4"'
      Cache-Control:
      - max-age=0, private, must-revalidate
      X-Request-Id:
      - 1f616dad-598f-4519-ad3a-2f1d4b59a73c
      X-Runtime:
      - '0.022227'
      Via:
      - 1.1 vegur
    body:
      encoding: UTF-8
      string: '[{"id":1371,"admin_emails":[],"coordinates":[-122.138615,37.444609],"description":"A
        collection of 132,000 items including large print and foreign language books,
        magazines and newspapers, DVDs, audio and video cassettes, compact discs,
        paperbacks, talking books and telephone directories. Business as well as research
        reference is available. Also offers consumer information, photocopiers, bus
        schedules and the files of the Palo Alto Historical Association and Internet
        PCs.","kind":"Libraries","latitude":37.444609,"longitude":-122.138615,"name":"Main
        Library","short_desc":null,"slug":"main-library","slugs":["main-library"],"updated_at":"2014-05-24T14:07:15.187-07:00","urls":["http://www.cityofpaloalto.org/library"],"contacts_url":"http://smc-ohana-api-test.herokuapp.com/api/locations/main-library/contacts","faxes_url":"http://smc-ohana-api-test.herokuapp.com/api/locations/main-library/faxes","services_url":"http://smc-ohana-api-test.herokuapp.com/api/locations/main-library/services","url":"http://smc-ohana-api-test.herokuapp.com/api/locations/main-library","address":{"id":1111,"street":"1213
        Newell Road","city":"Palo Alto","state":"CA","zip":"94303"},"organization":{"id":1296,"name":"Palo
        Alto City Library","slug":"palo-alto-city-library","_slugs":["palo-alto-city-library"],"slugs":["palo-alto-city-library"],"urls":[],"url":"http://smc-ohana-api-test.herokuapp.com/api/organizations/palo-alto-city-library","locations_url":"http://smc-ohana-api-test.herokuapp.com/api/organizations/palo-alto-city-library/locations"},"phones":[{"id":1849,"department":null,"extension":null,"number":"650
        329-2436","number_type":null,"vanity_number":null}]}]'
    http_version: 
  recorded_at: Thu, 28 Aug 2014 07:10:06 GMT
- request:
    method: get
    uri: http://smc-ohana-api-test.herokuapp.com/api/search?action=index&controller=locations&keyword=clinic&location=94403&org_name=&service_area=smc&utf8=%E2%9C%93
    body:
      encoding: US-ASCII
      string: ''
    headers:
      Accept:
      - application/vnd.ohanapi-v1+json
      User-Agent:
      - Ohanakapa Ruby Gem 1.1.2
      Accept-Encoding:
      - gzip;q=1.0,deflate;q=0.6,identity;q=0.3
  response:
    status:
      code: 200
      message: OK
    headers:
      Server:
      - Cowboy
      Connection:
      - close
      Date:
      - Thu, 28 Aug 2014 07:10:07 GMT
      Status:
      - 200 OK
      X-Frame-Options:
      - SAMEORIGIN
      X-Xss-Protection:
      - 1; mode=block
      X-Content-Type-Options:
      - nosniff
      Link:
      - <http://smc-ohana-api-test.herokuapp.com/api/search?keyword=clinic&location=94403&org_name=&page=11&service_area=smc&utf8=%E2%9C%93>;
        rel="last", <http://smc-ohana-api-test.herokuapp.com/api/search?keyword=clinic&location=94403&org_name=&page=2&service_area=smc&utf8=%E2%9C%93>;
        rel="next"
      X-Total-Count:
      - '11'
      X-Total-Pages:
      - '11'
      X-Current-Page:
      - '1'
      X-Next-Page:
      - '2'
      Content-Type:
      - application/json; charset=utf-8
      Etag:
      - '"1289f2750eda735eafe692eccb6ddd8b"'
      Cache-Control:
      - max-age=0, private, must-revalidate
      X-Request-Id:
      - 642cb0db-54b1-4a7b-94f2-2ac0d8df5ae1
      X-Runtime:
      - '0.198919'
      Via:
      - 1.1 vegur
    body:
      encoding: ASCII-8BIT
      string: !binary |-
        W3siaWQiOjEzOTAsImFkbWluX2VtYWlscyI6W10sImNvb3JkaW5hdGVzIjpb
        LTEyMi4yOTMxMjcxLDM3LjUzMjY5MjZdLCJkZXNjcmlwdGlvbiI6IlByb3Zp
        ZGVzIGZyZWUgIHByaW1hcnkgYW5kIHNwZWNpYWx0eSBtZWRpY2FsIGFuZCBk
        ZW50YWwgc2VydmljZXMgdG8gdW5pbnN1cmVkLCBsb3ctaW5jb21lIHJlc2lk
        ZW50cy4gXHJcblxyXG5XaG8gaXMgVHJlYXRlZD8gXHJcblBhdGllbnRzIG9m
        IG91ciBjbGluaWNzIGFyZSB0aGUgd29ya2luZyBwb29yLiBUaGV5IHRlbmQg
        dG8gZWFybiBqdXN0IGVub3VnaCBpbmNvbWUgdG8gYmUgaW5lbGlnaWJsZSBm
        b3IgTWVkaS1DYWwgY292ZXJhZ2UsIHlldCBkbyBub3QgcmVjZWl2ZSBoZWFs
        dGggaW5zdXJhbmNlIHRocm91Z2ggdGhlaXIgZW1wbG95ZXJzIGFuZCBjYW5u
        b3QgYWZmb3JkIHRvIHBheSBmb3Ig4oCcb3V0LW9mLXBvY2tldOKAnSBoZWFs
        dGggaW5zdXJhbmNlLiBPZnRlbiB0aGVzZSByZXNpZGVudHMgYXJlIGZvcmNl
        ZCB0byBzZWVrIHRyZWF0bWVudCBhdCBsb2NhbCBlbWVyZ2VuY3kgcm9vbXMg
        YW5kIGJlY29tZSBzYWRkbGVkIHdpdGggbWVkaWNhbCBiaWxscyB0aGF0IHRo
        ZXkgYXJlIHVuYWJsZSB0byBwYXkuIFNhbWFyaXRhbiBIb3VzZeKAmXMgRnJl
        ZSBNZWRpY2FsIENsaW5pY3MgZmlsbCB0aGlzIGdhcCBpbiBoZWFsdGhjYXJl
        IGFjY2VzcyBmb3IgdGhlIHVuaW5zdXJlZCBhbmQgc2F2ZSBlbWVyZ2VuY3kg
        cm9vbSByZXNvdXJjZXMgZm9yIGVtZXJnZW5jaWVzLlxyXG5cclxuUHJvZmVz
        c2lvbmFsIE1lZGljYWwgXHUwMDI2IERlbnRhbCBWb2x1bnRlZXJzXHJcblRo
        YW5rcyB0byBpdHMgaW5ub3ZhdGl2ZSB2b2x1bnRlZXItYmFzZWQgbW9kZWwg
        b2Ygc2VydmljZSwgU2FtYXJpdGFuIEhvdXNl4oCZcyBjbGluaWNzIGFyZSBh
        YmxlIHRvIHRyZWF0IHN1Y2ggYSBsYXJnZSBudW1iZXIgb2YgcGF0aWVudHMg
        d2l0aCBhIHZlcnkgc21hbGwgcGFpZCBzdGFmZi4gQWxtb3N0IGFsbCBvZiB0
        aGUgbWVkaWNhbCBhbmQgZGVudGFsIGRvY3RvcnMgYW5kIGFzc2lzdGFudHMg
        YXJlIHZvbHVudGVlcmluZyB0aGVpciB0aW1lIGZyZWUgb2YgY2hhcmdlLiBU
        aGVzZSBpbmRpdmlkdWFscywgZWl0aGVyIHJldGlyZWQgb3IgY3VycmVudGx5
        IHByYWN0aWNpbmcgbWVkaWNpbmUgYW5kIGRlbnRpc3RyeSwgd2FudCB0byBz
        ZXJ2ZSB0aGVpciBjb21tdW5pdHkgaW4gdGhlaXIgbGltaXRlZCBzcGFyZSB0
        aW1lLiIsImtpbmQiOiJIdW1hbiBTZXJ2aWNlcyIsImxhdGl0dWRlIjozNy41
        MzI2OTI2LCJsb25naXR1ZGUiOi0xMjIuMjkzMTI3MSwibmFtZSI6IlNhbiBN
        YXRlbyBGcmVlIE1lZGljYWwgQ2xpbmljIiwic2hvcnRfZGVzYyI6IlByb3Zp
        ZGVzIGZyZWUgbWVkaWNhbCBhbmQgZGVudGFsIGNhcmUgdG8gdGhvc2UgaW4g
        bmVlZC4gT2ZmZXJzIGJhc2ljIG1lZGljYWwgY2FyZSBmb3IgYWR1bHRzLiIs
        InNsdWciOiJzYW4tbWF0ZW8tZnJlZS1tZWRpY2FsLWNsaW5pYyIsInNsdWdz
        IjpbInNhbi1tYXRlby1mcmVlLW1lZGljYWwtY2xpbmljIl0sInVwZGF0ZWRf
        YXQiOiIyMDE0LTA1LTI0VDE0OjA4OjIwLjYyNi0wNzowMCIsInVybHMiOlsi
        aHR0cDovL3d3dy5zYW1hcml0YW5ob3VzZXNhbm1hdGVvLm9yZyJdLCJjb250
        YWN0c191cmwiOiJodHRwOi8vc21jLW9oYW5hLWFwaS10ZXN0Lmhlcm9rdWFw
        cC5jb20vYXBpL2xvY2F0aW9ucy9zYW4tbWF0ZW8tZnJlZS1tZWRpY2FsLWNs
        aW5pYy9jb250YWN0cyIsImZheGVzX3VybCI6Imh0dHA6Ly9zbWMtb2hhbmEt
        YXBpLXRlc3QuaGVyb2t1YXBwLmNvbS9hcGkvbG9jYXRpb25zL3Nhbi1tYXRl
        by1mcmVlLW1lZGljYWwtY2xpbmljL2ZheGVzIiwic2VydmljZXNfdXJsIjoi
        aHR0cDovL3NtYy1vaGFuYS1hcGktdGVzdC5oZXJva3VhcHAuY29tL2FwaS9s
        b2NhdGlvbnMvc2FuLW1hdGVvLWZyZWUtbWVkaWNhbC1jbGluaWMvc2Vydmlj
        ZXMiLCJ1cmwiOiJodHRwOi8vc21jLW9oYW5hLWFwaS10ZXN0Lmhlcm9rdWFw
        cC5jb20vYXBpL2xvY2F0aW9ucy9zYW4tbWF0ZW8tZnJlZS1tZWRpY2FsLWNs
        aW5pYyIsImFkZHJlc3MiOnsiaWQiOjExMzAsInN0cmVldCI6IjE5IFdlc3Qg
        Mzl0aCBBdmVudWUiLCJjaXR5IjoiU2FuIE1hdGVvIiwic3RhdGUiOiJDQSIs
        InppcCI6Ijk0NDAzIn0sIm9yZ2FuaXphdGlvbiI6eyJpZCI6MTMwMSwibmFt
        ZSI6IlNhbWFyaXRhbiBIb3VzZSIsInNsdWciOiJzYW1hcml0YW4taG91c2Ut
        NTdjZjE1ZWItMDljZC00OThlLWEwZTgtYjJmMTU0YTA3YmVjIiwiX3NsdWdz
        IjpbInNhbWFyaXRhbi1ob3VzZS01N2NmMTVlYi0wOWNkLTQ5OGUtYTBlOC1i
        MmYxNTRhMDdiZWMiXSwic2x1Z3MiOlsic2FtYXJpdGFuLWhvdXNlLTU3Y2Yx
        NWViLTA5Y2QtNDk4ZS1hMGU4LWIyZjE1NGEwN2JlYyJdLCJ1cmxzIjpbXSwi
        dXJsIjoiaHR0cDovL3NtYy1vaGFuYS1hcGktdGVzdC5oZXJva3VhcHAuY29t
        L2FwaS9vcmdhbml6YXRpb25zL3NhbWFyaXRhbi1ob3VzZS01N2NmMTVlYi0w
        OWNkLTQ5OGUtYTBlOC1iMmYxNTRhMDdiZWMiLCJsb2NhdGlvbnNfdXJsIjoi
        aHR0cDovL3NtYy1vaGFuYS1hcGktdGVzdC5oZXJva3VhcHAuY29tL2FwaS9v
        cmdhbml6YXRpb25zL3NhbWFyaXRhbi1ob3VzZS01N2NmMTVlYi0wOWNkLTQ5
        OGUtYTBlOC1iMmYxNTRhMDdiZWMvbG9jYXRpb25zIn0sInBob25lcyI6W3si
        aWQiOjE5MDQsImRlcGFydG1lbnQiOm51bGwsImV4dGVuc2lvbiI6bnVsbCwi
        bnVtYmVyIjoiNjUwIDU3OC0wNDAwIiwibnVtYmVyX3R5cGUiOm51bGwsInZh
        bml0eV9udW1iZXIiOm51bGx9XX1d
    http_version: 
  recorded_at: Thu, 28 Aug 2014 07:10:07 GMT
recorded_with: VCR 2.9.2
