---
http_interactions:
- request:
    method: get
    uri: http://smc-ohana-api-test.herokuapp.com/api/search?action=index&controller=locations
    body:
      encoding: US-ASCII
      string: ''
    headers:
      Accept:
      - application/vnd.ohanapi-v1+json
      User-Agent:
      - Ohanakapa Ruby Gem 1.1.2
      Accept-Encoding:
      - gzip;q=1.0,deflate;q=0.6,identity;q=0.3
  response:
    status:
      code: 200
      message: OK
    headers:
      Server:
      - Cowboy
      Connection:
      - keep-alive
      X-Frame-Options:
      - SAMEORIGIN
      X-Xss-Protection:
      - 1; mode=block
      X-Content-Type-Options:
      - nosniff
      Etag:
      - '"c464f727ed8f9567e522a8adc6f024ef"'
      Link:
      - <http://smc-ohana-api-test.herokuapp.com/api/search?page=343>; rel="last",
        <http://smc-ohana-api-test.herokuapp.com/api/search?page=2>; rel="next"
      X-Total-Count:
      - '343'
      Content-Type:
      - application/json; charset=utf-8
      Cache-Control:
      - max-age=0, public
      X-Request-Id:
      - e3488257-b727-40fb-a971-0547b2f550b7
      X-Runtime:
      - '3.222846'
      X-Content-Digest:
      - a315da6510efa7aac563b1f949dd53cda88db56a
      Date:
      - Sat, 15 Aug 2015 18:04:22 GMT
      Age:
      - '0'
      X-Rack-Cache:
      - stale, valid, store
      Content-Length:
      - '1500'
      Via:
      - 1.1 vegur
    body:
      encoding: UTF-8
      string: '[{"id":1371,"active":true,"admin_emails":[],"alternate_name":null,"coordinates":[-122.138615,37.444609],"description":"A
        collection of 132,000 items including large print and foreign language books,
        magazines and newspapers, DVDs, audio and video cassettes, compact discs,
        paperbacks, talking books and telephone directories. Business as well as research
        reference is available. Also offers consumer information, photocopiers, bus
        schedules and the files of the Palo Alto Historical Association and Internet
        PCs.","kind":"Libraries","latitude":37.444609,"longitude":-122.138615,"name":"Main
        Library","short_desc":null,"slug":"main-library","updated_at":"2014-11-30T19:05:11.640-08:00","url":"http://smc-ohana-api-test.herokuapp.com/api/locations/main-library","address":{"id":1111,"address_1":"1213
        Newell Road","address_2":null,"street_1":"1213 Newell Road","street_2":null,"city":"Palo
        Alto","state_province":"CA","postal_code":"94303"},"organization":{"id":1296,"accreditations":[],"alternate_name":null,"date_incorporated":null,"description":null,"email":null,"funding_sources":[],"licenses":[],"name":"Palo
        Alto City Library","website":null,"slug":"palo-alto-city-library","url":"http://smc-ohana-api-test.herokuapp.com/api/organizations/palo-alto-city-library","locations_url":"http://smc-ohana-api-test.herokuapp.com/api/organizations/palo-alto-city-library/locations"},"phones":[{"id":1849,"department":null,"extension":null,"number":"650
        329-2436","number_type":null,"vanity_number":null}]}]'
    http_version: 
  recorded_at: Sat, 15 Aug 2015 18:04:22 GMT
- request:
    method: get
    uri: http://smc-ohana-api-test.herokuapp.com/api/search?action=index&controller=locations&keyword=soccer
    body:
      encoding: US-ASCII
      string: ''
    headers:
      Accept:
      - application/vnd.ohanapi-v1+json
      User-Agent:
      - Ohanakapa Ruby Gem 1.1.2
      Accept-Encoding:
      - gzip;q=1.0,deflate;q=0.6,identity;q=0.3
  response:
    status:
      code: 200
      message: OK
    headers:
      Server:
      - Cowboy
      Connection:
      - keep-alive
      X-Frame-Options:
      - SAMEORIGIN
      X-Xss-Protection:
      - 1; mode=block
      X-Content-Type-Options:
      - nosniff
      Etag:
      - '"740ab8723daa14137498c7490c15fad9"'
      Link:
      - <http://smc-ohana-api-test.herokuapp.com/api/search?keyword=soccer&page=3>;
        rel="last", <http://smc-ohana-api-test.herokuapp.com/api/search?keyword=soccer&page=2>;
        rel="next"
      X-Total-Count:
      - '3'
      Content-Type:
      - application/json; charset=utf-8
      Cache-Control:
      - max-age=0, public
      X-Request-Id:
      - b337e08b-b6f7-4540-acc4-4f528a5fff1d
      X-Runtime:
      - '0.076311'
      X-Content-Digest:
      - cceb0a4e91c64072e4df071e81f91b35fabee359
      Date:
      - Sat, 15 Aug 2015 18:04:22 GMT
      Age:
      - '0'
      X-Rack-Cache:
      - stale, valid, store
      Content-Length:
      - '2260'
      Via:
      - 1.1 vegur
    body:
      encoding: UTF-8
      string: '[{"id":1673,"active":true,"admin_emails":[],"alternate_name":null,"coordinates":[-122.4766884,37.730927],"description":"Offers
        licensed elementary school-age childcare at several sites, preschool, youth
        activities, residential camp, day camp and special interest activities including
        programming for children of single parents and family nights. Also offers
        mentoring, counseling and tutoring services. The Seniors Drop-In Center provides
        information and referral, recreational and cultural activities, health screening,
        blood pressure check-ups, adaptive exercise for stroke survivors, travel program,
        annual tax preparation assistance, Christmas Day party and companionship for
        single seniors, and hot lunch served weekdays at 11:45 am. The Senior Program
        is at 3150 - 20th Avenue, San Francisco. The branch is also a full facility
        fitness center with an approach to total wellness offering aerobics, swimming,
        youth sports, stretching and toning, strength training, basketball, martial
        arts, yoga, tai chi, water aerobics, pilates, dance, youth dance and soccer.
        Childcare is available for parents while they workout.","kind":"Other","latitude":37.730927,"longitude":-122.4766884,"name":"Stonestown
        Family YMCA","short_desc":"Athletic/fitness programs for youth/adults, drop-in
        senior center, meal site, day camp, after school care for children.","slug":"stonestown-family-ymca","updated_at":"2014-11-30T19:05:17.883-08:00","url":"http://smc-ohana-api-test.herokuapp.com/api/locations/stonestown-family-ymca","address":{"id":1397,"address_1":"333
        Eucalyptus Drive","address_2":null,"street_1":"333 Eucalyptus Drive","street_2":null,"city":"San
        Francisco","state_province":"CA","postal_code":"94132"},"organization":{"id":1341,"accreditations":[],"alternate_name":null,"date_incorporated":null,"description":null,"email":null,"funding_sources":[],"licenses":[],"name":"YMCA
        of San Francisco","website":null,"slug":"ymca-of-san-francisco","url":"http://smc-ohana-api-test.herokuapp.com/api/organizations/ymca-of-san-francisco","locations_url":"http://smc-ohana-api-test.herokuapp.com/api/organizations/ymca-of-san-francisco/locations"},"phones":[{"id":2449,"department":null,"extension":null,"number":"415
        242-7100","number_type":null,"vanity_number":null}]}]'
    http_version: 
  recorded_at: Sat, 15 Aug 2015 18:04:22 GMT
- request:
    method: get
    uri: http://smc-ohana-api-test.herokuapp.com/api/search?action=index&controller=locations&kind=Other
    body:
      encoding: US-ASCII
      string: ''
    headers:
      Accept:
      - application/vnd.ohanapi-v1+json
      User-Agent:
      - Ohanakapa Ruby Gem 1.1.2
      Accept-Encoding:
      - gzip;q=1.0,deflate;q=0.6,identity;q=0.3
  response:
    status:
      code: 200
      message: OK
    headers:
      Server:
      - Cowboy
      Connection:
      - keep-alive
      X-Frame-Options:
      - SAMEORIGIN
      X-Xss-Protection:
      - 1; mode=block
      X-Content-Type-Options:
      - nosniff
      Etag:
      - '"93abe5c57758d50bb2fb5b50889cc5e9"'
      Link:
      - <http://smc-ohana-api-test.herokuapp.com/api/search?kind=Other&page=48>; rel="last",
        <http://smc-ohana-api-test.herokuapp.com/api/search?kind=Other&page=2>; rel="next"
      X-Total-Count:
      - '48'
      Content-Type:
      - application/json; charset=utf-8
      Cache-Control:
      - max-age=0, public
      X-Request-Id:
      - 30bace4e-06b6-49bc-b518-5d1d9554b425
      X-Runtime:
      - '0.548487'
      X-Content-Digest:
      - 1516f725dd0ba9af82da6d8a310daa08b9b87843
      Date:
      - Sat, 15 Aug 2015 18:04:22 GMT
      Age:
      - '0'
      X-Rack-Cache:
      - stale, valid, store
      Content-Length:
      - '3267'
      Via:
      - 1.1 vegur
    body:
      encoding: UTF-8
      string: '[{"id":1373,"active":true,"admin_emails":[],"alternate_name":null,"coordinates":[-122.3263232,37.5639394],"description":"Provides
        training and job placement to eligible people age 55 or over who meet certain
        income qualifications. An income of 125% of poverty level or less is required
        for subsidized employment and training. (No income requirements for job matchup
        program.) If a person seems likely to be qualified after a preliminary phone
        call or visit, he or she must complete an application at this office. Staff
        will locate appropriate placements for applicants, provide orientation and
        on-the-job training and assist with finding a job outside the program. Any
        county resident, regardless of income, age 55 or over has access to the program,
        job developers and the job bank. Also provides referrals to classroom training.
        Formerly known as Family Service Agency of San Mateo County, Senior Employment
        Services.","kind":"Other","latitude":37.5639394,"longitude":-122.3263232,"name":"Second
        Career Employment Program","short_desc":"Provides training and job placement
        to eligible persons age 55 or over. All persons age 55 or over have access
        to information in the program''s job bank.","slug":"second-career-employment-program","updated_at":"2014-11-30T19:05:11.740-08:00","url":"http://smc-ohana-api-test.herokuapp.com/api/locations/second-career-employment-program","address":{"id":1113,"address_1":"24
        Second Avenue","address_2":null,"street_1":"24 Second Avenue","street_2":null,"city":"San
        Mateo","state_province":"CA","postal_code":"94401"},"organization":{"id":1297,"accreditations":[],"alternate_name":null,"date_incorporated":null,"description":null,"email":null,"funding_sources":[],"licenses":[],"name":"Peninsula
        Family Service","website":null,"slug":"peninsula-family-service-f8e82538-5878-414f-9ba9-6ded2c15d731","url":"http://smc-ohana-api-test.herokuapp.com/api/organizations/peninsula-family-service-f8e82538-5878-414f-9ba9-6ded2c15d731","locations_url":"http://smc-ohana-api-test.herokuapp.com/api/organizations/peninsula-family-service-f8e82538-5878-414f-9ba9-6ded2c15d731/locations"},"phones":[{"id":1851,"department":null,"extension":null,"number":"650
        403-4300","number_type":null,"vanity_number":null},{"id":1852,"department":null,"extension":"4385","number":"650
        403-4300","number_type":null,"vanity_number":null},{"id":1853,"department":null,"extension":"4322
        (English)","number":"650 403-4300","number_type":null,"vanity_number":null},{"id":1854,"department":null,"extension":"4392
        (Cantonese or Mandarin)","number":"650 403-4300","number_type":null,"vanity_number":null},{"id":1855,"department":null,"extension":"4363
        (Filipino)","number":"650 403-4300","number_type":null,"vanity_number":null},{"id":1856,"department":null,"extension":"4322
        (LGBT (Lesbian, Gay, Bisexual, Transgender) community)","number":"650 403-4300","number_type":null,"vanity_number":null},{"id":1857,"department":null,"extension":"4321
        (Spanish / La Esperanza Vive)","number":"650 403-4300","number_type":null,"vanity_number":null},{"id":1858,"department":null,"extension":"4500","number":"650
        403-4300","number_type":null,"vanity_number":null},{"id":1859,"department":null,"extension":"4100","number":"650
        403-4300","number_type":null,"vanity_number":null}]}]'
    http_version: 
  recorded_at: Sat, 15 Aug 2015 18:04:23 GMT
recorded_with: VCR 2.9.3
