---
http_interactions:
- request:
    method: get
    uri: http://smc-ohana-api-test.herokuapp.com/api/search?action=index&controller=locations&keyword=wic
    body:
      encoding: US-ASCII
      string: ''
    headers:
      Accept:
      - application/vnd.ohanapi-v1+json
      User-Agent:
      - Ohanakapa Ruby Gem 1.1.2
      Accept-Encoding:
      - gzip;q=1.0,deflate;q=0.6,identity;q=0.3
  response:
    status:
      code: 200
      message: OK
    headers:
      Server:
      - Cowboy
      Connection:
      - close
      Date:
      - Fri, 05 Dec 2014 21:05:20 GMT
      Status:
      - 200 OK
      X-Frame-Options:
      - SAMEORIGIN
      X-Xss-Protection:
      - 1; mode=block
      X-Content-Type-Options:
      - nosniff
      Etag:
      - '"99c6607a00c93b83b6ee71a62a416353"'
      Link:
      - <http://smc-ohana-api-test.herokuapp.com/api/search?keyword=wic&page=4>; rel="last",
        <http://smc-ohana-api-test.herokuapp.com/api/search?keyword=wic&page=2>; rel="next"
      X-Total-Count:
      - '4'
      Content-Type:
      - application/json; charset=utf-8
      Cache-Control:
      - max-age=0, public
      X-Request-Id:
      - 8afebb8d-f10b-488c-9f20-9148ed2ae404
      X-Runtime:
      - '0.032324'
      X-Rack-Cache:
      - pass
      Via:
      - 1.1 vegur
    body:
      encoding: UTF-8
      string: '[{"id":1455,"active":true,"admin_emails":[],"alternate_name":null,"coordinates":[-122.3171637,37.5624546],"description":"Offers
        nutrition education and supplemental foods to women who are pregnant, post-partum
        or breastfeeding, and children age 5 or under. Families may be low- or medium-income
        and working families may also qualify. There are six WIC clinic sites in the
        county (South San Francisco, East Palo Alto, Redwood City, Daly City, San
        Mateo and Half Moon Bay). Supplemental food is made available through issuance
        of coupons redeemable at most grocery stores for certain food items selected
        to provide essential nutrients. Participation does not affect eligibility
        for food stamps or other public assistance programs. Also assists in finding
        health care and other community services. Formerly known as San Mateo County
        Health Department, Public Health Division. Nutrition Programs. Women, Infants
        and Children (WIC) Program.","kind":"Human Services","latitude":37.5624546,"longitude":-122.3171637,"name":"Family
        Health Services., Public Health Nutrition., Women, Infants and Children (WIC)
        Program","short_desc":"Offers nutrition education and supplemental foods to
        low-income women who are pregnant, post-partum or breastfeeding.","slug":"family-health-services-public-health-nutrition-women-infants-and-children-wic-program","updated_at":"2014-11-30T19:05:13.334-08:00","url":"http://smc-ohana-api-test.herokuapp.com/api/locations/family-health-services-public-health-nutrition-women-infants-and-children-wic-program","address":{"id":1195,"street":"477
        9th Avenue, Suite 110","street_1":"477 9th Avenue, Suite 110","street_2":null,"city":"San
        Mateo","state":"CA","state_province":"CA","postal_code":"94402","zip":"94402"},"organization":{"id":1309,"accreditations":[],"alternate_name":null,"date_incorporated":null,"description":null,"email":null,"funding_sources":[],"licenses":[],"name":"San
        Mateo County Health System","website":null,"slug":"san-mateo-county-health-system","url":"http://smc-ohana-api-test.herokuapp.com/api/organizations/san-mateo-county-health-system","locations_url":"http://smc-ohana-api-test.herokuapp.com/api/organizations/san-mateo-county-health-system/locations"},"phones":[{"id":2012,"department":null,"extension":null,"number":"650
        573-2168","number_type":null,"vanity_number":null},{"id":2013,"department":"Breastfeeding
        Helpline","extension":null,"number":"800 205-0333","number_type":null,"vanity_number":null}]}]'
    http_version: 
  recorded_at: Fri, 05 Dec 2014 21:05:20 GMT
recorded_with: VCR 2.9.3
