---
http_interactions:
- request:
    method: get
    uri: http://smc-ohana-api-test.herokuapp.com/api/search?action=index&controller=locations&keyword=wic
    body:
      encoding: US-ASCII
      string: ''
    headers:
      Accept:
      - application/vnd.ohanapi-v1+json
      User-Agent:
      - Ohanakapa Ruby Gem 1.1.2
      Accept-Encoding:
      - gzip;q=1.0,deflate;q=0.6,identity;q=0.3
  response:
    status:
      code: 200
      message: OK
    headers:
      Server:
      - Cowboy
      Connection:
      - close
      Date:
      - Thu, 28 Aug 2014 07:10:04 GMT
      Status:
      - 200 OK
      X-Frame-Options:
      - SAMEORIGIN
      X-Xss-Protection:
      - 1; mode=block
      X-Content-Type-Options:
      - nosniff
      Link:
      - <http://smc-ohana-api-test.herokuapp.com/api/search?keyword=wic&page=3>; rel="last",
        <http://smc-ohana-api-test.herokuapp.com/api/search?keyword=wic&page=2>; rel="next"
      X-Total-Count:
      - '3'
      X-Total-Pages:
      - '3'
      X-Current-Page:
      - '1'
      X-Next-Page:
      - '2'
      Content-Type:
      - application/json; charset=utf-8
      Etag:
      - '"d55d5291c5be6705bc50ac37ad5331d7"'
      Cache-Control:
      - max-age=0, private, must-revalidate
      X-Request-Id:
      - 70a766a7-c726-414e-896a-5c929a62522d
      X-Runtime:
      - '0.024447'
      Via:
      - 1.1 vegur
    body:
      encoding: UTF-8
      string: '[{"id":1455,"admin_emails":[],"coordinates":[-122.3171637,37.5624546],"description":"Offers
        nutrition education and supplemental foods to women who are pregnant, post-partum
        or breastfeeding, and children age 5 or under. Families may be low- or medium-income
        and working families may also qualify. There are six WIC clinic sites in the
        county (South San Francisco, East Palo Alto, Redwood City, Daly City, San
        Mateo and Half Moon Bay). Supplemental food is made available through issuance
        of coupons redeemable at most grocery stores for certain food items selected
        to provide essential nutrients. Participation does not affect eligibility
        for food stamps or other public assistance programs. Also assists in finding
        health care and other community services. Formerly known as San Mateo County
        Health Department, Public Health Division. Nutrition Programs. Women, Infants
        and Children (WIC) Program.","kind":"Human Services","latitude":37.5624546,"longitude":-122.3171637,"name":"Family
        Health Services., Public Health Nutrition., Women, Infants and Children (WIC)
        Program","short_desc":"Offers nutrition education and supplemental foods to
        low-income women who are pregnant, post-partum or breastfeeding.","slug":"family-health-services-public-health-nutrition-women-infants-and-children-wic-program","slugs":["family-health-services-public-health-nutrition-women-infants-and-children-wic-program"],"updated_at":"2014-05-24T14:08:24.716-07:00","urls":["http://www.smchealth.org/wic"],"contacts_url":"http://smc-ohana-api-test.herokuapp.com/api/locations/family-health-services-public-health-nutrition-women-infants-and-children-wic-program/contacts","faxes_url":"http://smc-ohana-api-test.herokuapp.com/api/locations/family-health-services-public-health-nutrition-women-infants-and-children-wic-program/faxes","services_url":"http://smc-ohana-api-test.herokuapp.com/api/locations/family-health-services-public-health-nutrition-women-infants-and-children-wic-program/services","url":"http://smc-ohana-api-test.herokuapp.com/api/locations/family-health-services-public-health-nutrition-women-infants-and-children-wic-program","address":{"id":1195,"street":"477
        9th Avenue, Suite 110","city":"San Mateo","state":"CA","zip":"94402"},"organization":{"id":1309,"name":"San
        Mateo County Health System","slug":"san-mateo-county-health-system","_slugs":["san-mateo-county-health-system"],"slugs":["san-mateo-county-health-system"],"urls":[],"url":"http://smc-ohana-api-test.herokuapp.com/api/organizations/san-mateo-county-health-system","locations_url":"http://smc-ohana-api-test.herokuapp.com/api/organizations/san-mateo-county-health-system/locations"},"phones":[{"id":2012,"department":null,"extension":null,"number":"650
        573-2168","number_type":null,"vanity_number":null},{"id":2013,"department":"Breastfeeding
        Helpline","extension":null,"number":"800 205-0333","number_type":null,"vanity_number":null}]}]'
    http_version: 
  recorded_at: Thu, 28 Aug 2014 07:10:04 GMT
recorded_with: VCR 2.9.2
