---
http_interactions:
- request:
    method: get
    uri: http://ohana-api-test.herokuapp.com/api/search?action=index&controller=locations&keyword=youth
    body:
      encoding: US-ASCII
      string: ''
    headers:
      Accept:
      - application/vnd.ohanapi-v1+json
      User-Agent:
      - Ohanakapa Ruby Gem 1.1.2
      Accept-Encoding:
      - gzip;q=1.0,deflate;q=0.6,identity;q=0.3
  response:
    status:
      code: 200
      message: OK
    headers:
      Server:
      - Cowboy
      Connection:
      - close
      Date:
      - Mon, 20 Oct 2014 21:37:20 GMT
      Status:
      - 200 OK
      X-Frame-Options:
      - SAMEORIGIN
      X-Xss-Protection:
      - 1; mode=block
      X-Content-Type-Options:
      - nosniff
      Link:
      - <http://ohana-api-test.herokuapp.com/api/search?keyword=youth&page=3>; rel="last",
        <http://ohana-api-test.herokuapp.com/api/search?keyword=youth&page=2>; rel="next"
      X-Total-Count:
      - '3'
      Content-Type:
      - application/json; charset=utf-8
      Cache-Control:
      - max-age=0, public
      Etag:
      - '"248368c54637ec77fc733a30fcafe3fc"'
      X-Request-Id:
      - 70b371ca-6ffd-479f-afff-f4604ac1fd98
      X-Runtime:
      - '0.075352'
      Via:
      - 1.1 vegur
    body:
      encoding: UTF-8
      string: '[{"id":12,"admin_emails":[],"coordinates":[-122.2273954,37.4838423],"description":"Offers
        an intergenerational literacy program for youth and English-speaking adults
        seeking to improver literacy skills. Adult services include: adult one-to-one
        tutoring to improve basic skills in reading, writing and critical thinking;
        Families for Literacy (FFL), a home-based family literacy program for parents
        who want to be able to read to their young children; and small group/English
        as a Second Language (ESL). Youth services include: Youth Tutoring, Families
        in Partnership (FIP); Teen-to-Elementary Student Tutoring, Kids in Partnership
        (KIP); and computer-aided literacy. Redwood City Friends of Literacy is a
        fundraising board that helps to support and to fund Redwood City''s Project
        Read. Call for more information about each service.","latitude":37.4838423,"longitude":-122.2273954,"name":"Project
        Read","short_desc":"Offers an intergenerational literacy program for adults
        and youth seeking to improver literacy skills.","slug":"project-read","updated_at":"2014-10-20T12:44:02.801-07:00","urls":["http://www.projectreadredwoodcity.org"],"contacts_url":"http://ohana-api-test.herokuapp.com/api/locations/project-read/contacts","services_url":"http://ohana-api-test.herokuapp.com/api/locations/project-read/services","url":"http://ohana-api-test.herokuapp.com/api/locations/project-read","address":{"id":12,"street_1":"1044
        Middlefield Road","street_2":"2nd Floor","city":"Redwood City","state":"CA","postal_code":"94063"},"organization":{"id":3,"alternate_name":null,"date_incorporated":null,"description":"The
        Redwood City Public Library inspires learning through innovative and visionary
        programming and services—literacy programs, support for school success, access
        to technology, safe, inviting spaces for youth and families, and gathering
        places that connect the members of the community with a love of reading and
        learning.","email":null,"name":"Redwood City Public Library","slug":"redwood-city-public-library","website":null,"url":"http://ohana-api-test.herokuapp.com/api/organizations/redwood-city-public-library","locations_url":"http://ohana-api-test.herokuapp.com/api/organizations/redwood-city-public-library/locations"},"phones":[{"id":23,"department":null,"extension":null,"number":"650
        780-7077","number_type":"voice","vanity_number":null},{"id":24,"department":null,"extension":null,"number":"650
        780-7004","number_type":"fax","vanity_number":null}]}]'
    http_version: 
  recorded_at: Mon, 20 Oct 2014 21:37:20 GMT
- request:
    method: get
    uri: http://ohana-api-test.herokuapp.com/api/search?action=index&controller=locations&keyword=youth&page=2
    body:
      encoding: US-ASCII
      string: ''
    headers:
      Accept:
      - application/vnd.ohanapi-v1+json
      User-Agent:
      - Ohanakapa Ruby Gem 1.1.2
      Accept-Encoding:
      - gzip;q=1.0,deflate;q=0.6,identity;q=0.3
  response:
    status:
      code: 200
      message: OK
    headers:
      Server:
      - Cowboy
      Connection:
      - close
      Date:
      - Mon, 20 Oct 2014 21:37:21 GMT
      Status:
      - 200 OK
      X-Frame-Options:
      - SAMEORIGIN
      X-Xss-Protection:
      - 1; mode=block
      X-Content-Type-Options:
      - nosniff
      Link:
      - <http://ohana-api-test.herokuapp.com/api/search?keyword=youth&page=1>; rel="first",
        <http://ohana-api-test.herokuapp.com/api/search?keyword=youth&page=1>; rel="prev",
        <http://ohana-api-test.herokuapp.com/api/search?keyword=youth&page=3>; rel="last",
        <http://ohana-api-test.herokuapp.com/api/search?keyword=youth&page=3>; rel="next"
      X-Total-Count:
      - '3'
      Content-Type:
      - application/json; charset=utf-8
      Cache-Control:
      - max-age=0, public
      Etag:
      - '"f89e681aaedc470992672a66976e16fa"'
      X-Request-Id:
      - 66c094a3-caad-497e-abbe-2c1d595b071d
      X-Runtime:
      - '0.451161'
      Via:
      - 1.1 vegur
    body:
      encoding: UTF-8
      string: '[{"id":16,"admin_emails":[],"coordinates":[-122.0600024,37.3569004],"description":"Provides
        emergency assistance including food and clothing for persons in immediate
        need. Provides PG\u0026E assistance through REACH program. Youth programs
        offer tutoring, music and troops. Information on related resources is available.
        Also provides rental assistance when funds are available.","latitude":37.3569004,"longitude":-122.0600024,"name":"Sunnyvale
        Corps","short_desc":"Provides emergency assistance to persons in immediate
        need and offers after school activities and summer day camp program.","slug":"sunnyvale-corps","updated_at":"2014-10-20T12:44:05.507-07:00","urls":[],"contacts_url":"http://ohana-api-test.herokuapp.com/api/locations/sunnyvale-corps/contacts","services_url":"http://ohana-api-test.herokuapp.com/api/locations/sunnyvale-corps/services","url":"http://ohana-api-test.herokuapp.com/api/locations/sunnyvale-corps","address":{"id":16,"street_1":"1161
        South Bernardo","street_2":null,"city":"Sunnyvale","state":"CA","postal_code":"94087"},"organization":{"id":4,"alternate_name":null,"date_incorporated":null,"description":"The
        Salvation Army operates 7,546 centers in communities across the United States.
        These include food distribution, disaster relief, rehabilitation centers,
        anti-human trafficking efforts, and a wealth of children''s programs.","email":null,"name":"Salvation
        Army","slug":"salvation-army","website":null,"url":"http://ohana-api-test.herokuapp.com/api/organizations/salvation-army","locations_url":"http://ohana-api-test.herokuapp.com/api/organizations/salvation-army/locations"},"phones":[{"id":30,"department":null,"extension":null,"number":"408
        720-0420","number_type":"voice","vanity_number":null},{"id":31,"department":null,"extension":null,"number":"408
        720-8075","number_type":"fax","vanity_number":null}]}]'
    http_version: 
  recorded_at: Mon, 20 Oct 2014 21:37:21 GMT
recorded_with: VCR 2.9.2
