---
http_interactions:
- request:
    method: get
    uri: http://ohana-api-test.herokuapp.com/api/search?action=index&controller=organizations&keyword=youth
    body:
      encoding: US-ASCII
      string: ''
    headers:
      Accept:
      - application/vnd.ohanapi-v1+json
      User-Agent:
      - Ohanakapa Ruby Gem 1.1.1
      Accept-Encoding:
      - gzip;q=1.0,deflate;q=0.6,identity;q=0.3
  response:
    status:
      code: 200
      message: OK
    headers:
      Connection:
      - keep-alive
      Content-Type:
      - application/json; charset=utf-8
      Transfer-Encoding:
      - chunked
      Status:
      - 200 OK
      X-Frame-Options:
      - SAMEORIGIN
      X-Xss-Protection:
      - 1; mode=block
      X-Content-Type-Options:
      - nosniff
      Link:
      - <http://ohana-api-test.herokuapp.com/api/search?keyword=youth&page=3>; rel="last",
        <http://ohana-api-test.herokuapp.com/api/search?keyword=youth&page=2>; rel="next"
      X-Total-Count:
      - '3'
      X-Total-Pages:
      - '3'
      X-Current-Page:
      - '1'
      X-Next-Page:
      - '2'
      Cache-Control:
      - max-age=0, private, must-revalidate
      X-Request-Id:
      - 4de99bf8-c985-41c6-bc02-e86872e59243
      X-Runtime:
      - '0.023035'
      X-Powered-By:
      - Phusion Passenger 4.0.46
      Date:
      - Sat, 26 Jul 2014 07:18:46 GMT
      Server:
      - nginx/1.6.0 + Phusion Passenger 4.0.46
      Via:
      - 1.1 vegur
    body:
      encoding: UTF-8
      string: '[{"id":12,"admin_emails":[],"coordinates":[-122.227409,37.4837662],"description":"Offers
        an intergenerational literacy program for youth and English-speaking adults
        seeking to improver literacy skills. Adult services include: adult one-to-one
        tutoring to improve basic skills in reading, writing and critical thinking;
        Families for Literacy (FFL), a home-based family literacy program for parents
        who want to be able to read to their young children; and small group/English
        as a Second Language (ESL). Youth services include: Youth Tutoring, Families
        in Partnership (FIP); Teen-to-Elementary Student Tutoring, Kids in Partnership
        (KIP); and computer-aided literacy. Redwood City Friends of Literacy is a
        fundraising board that helps to support and to fund Redwood City''s Project
        Read. Call for more information about each service.","latitude":37.4837662,"longitude":-122.227409,"name":"Project
        Read","short_desc":"Offers an intergenerational literacy program for adults
        and youth seeking to improver literacy skills.","slug":"project-read","updated_at":"2014-05-09T20:49:18.932-07:00","urls":["http://www.projectreadredwoodcity.org"],"contacts_url":"http://ohana-api-test.herokuapp.com/api/locations/project-read/contacts","faxes_url":"http://ohana-api-test.herokuapp.com/api/locations/project-read/faxes","services_url":"http://ohana-api-test.herokuapp.com/api/locations/project-read/services","url":"http://ohana-api-test.herokuapp.com/api/locations/project-read","address":{"id":12,"street":"1044
        Middlefield Road, 2nd Floor","city":"Redwood City","state":"CA","zip":"94063"},"organization":{"id":3,"name":"Redwood
        City Public Library","slug":"redwood-city-public-library","urls":[],"url":"http://ohana-api-test.herokuapp.com/api/organizations/redwood-city-public-library","locations_url":"http://ohana-api-test.herokuapp.com/api/organizations/redwood-city-public-library/locations"},"phones":[{"id":12,"department":null,"extension":null,"number":"650
        780-7077","number_type":null,"vanity_number":null}]}]'
    http_version: 
  recorded_at: Sat, 26 Jul 2014 07:18:46 GMT
- request:
    method: get
    uri: http://ohana-api-test.herokuapp.com/api/search?action=index&controller=organizations&keyword=youth&page=2
    body:
      encoding: US-ASCII
      string: ''
    headers:
      Accept:
      - application/vnd.ohanapi-v1+json
      User-Agent:
      - Ohanakapa Ruby Gem 1.1.1
      Accept-Encoding:
      - gzip;q=1.0,deflate;q=0.6,identity;q=0.3
  response:
    status:
      code: 200
      message: OK
    headers:
      Connection:
      - keep-alive
      Content-Type:
      - application/json; charset=utf-8
      Transfer-Encoding:
      - chunked
      Status:
      - 200 OK
      X-Frame-Options:
      - SAMEORIGIN
      X-Xss-Protection:
      - 1; mode=block
      X-Content-Type-Options:
      - nosniff
      Link:
      - <http://ohana-api-test.herokuapp.com/api/search?keyword=youth&page=1>; rel="first",
        <http://ohana-api-test.herokuapp.com/api/search?keyword=youth&page=1>; rel="prev",
        <http://ohana-api-test.herokuapp.com/api/search?keyword=youth&page=3>; rel="last",
        <http://ohana-api-test.herokuapp.com/api/search?keyword=youth&page=3>; rel="next"
      X-Total-Count:
      - '3'
      X-Total-Pages:
      - '3'
      X-Current-Page:
      - '2'
      X-Next-Page:
      - '3'
      X-Previous-Page:
      - '1'
      Cache-Control:
      - max-age=0, private, must-revalidate
      X-Request-Id:
      - eedc7933-25b9-48db-abe1-1ca7ac87499d
      X-Runtime:
      - '0.024255'
      X-Powered-By:
      - Phusion Passenger 4.0.46
      Date:
      - Sat, 26 Jul 2014 07:18:46 GMT
      Server:
      - nginx/1.6.0 + Phusion Passenger 4.0.46
      Via:
      - 1.1 vegur
    body:
      encoding: UTF-8
      string: '[{"id":16,"admin_emails":[],"coordinates":[-122.0600024,37.3569004],"description":"Provides
        emergency assistance including food and clothing for persons in immediate
        need. Provides PG\u0026E assistance through REACH program. Youth programs
        offer tutoring, music and troops. Information on related resources is available.
        Also provides rental assistance when funds are available.","latitude":37.3569004,"longitude":-122.0600024,"name":"Sunnyvale
        Corps","short_desc":"Provides emergency assistance to persons in immediate
        need and offers after school activities and summer day camp program.","slug":"sunnyvale-corps","updated_at":"2014-05-09T20:49:18.955-07:00","urls":[],"contacts_url":"http://ohana-api-test.herokuapp.com/api/locations/sunnyvale-corps/contacts","faxes_url":"http://ohana-api-test.herokuapp.com/api/locations/sunnyvale-corps/faxes","services_url":"http://ohana-api-test.herokuapp.com/api/locations/sunnyvale-corps/services","url":"http://ohana-api-test.herokuapp.com/api/locations/sunnyvale-corps","address":{"id":16,"street":"1161
        South Bernardo","city":"Sunnyvale","state":"CA","zip":"94087"},"organization":{"id":4,"name":"Salvation
        Army","slug":"salvation-army","urls":[],"url":"http://ohana-api-test.herokuapp.com/api/organizations/salvation-army","locations_url":"http://ohana-api-test.herokuapp.com/api/organizations/salvation-army/locations"},"phones":[{"id":16,"department":null,"extension":null,"number":"408
        720-0420","number_type":null,"vanity_number":null}]}]'
    http_version: 
  recorded_at: Sat, 26 Jul 2014 07:18:46 GMT
recorded_with: VCR 2.9.2
