---
http_interactions:
- request:
    method: get
    uri: http://smc-ohana-api-test.herokuapp.com/api/search?action=index&controller=locations&keyword=
    body:
      encoding: US-ASCII
      string: ''
    headers:
      Accept:
      - application/vnd.ohanapi-v1+json
      User-Agent:
      - Ohanakapa Ruby Gem 1.1.2
      Accept-Encoding:
      - gzip;q=1.0,deflate;q=0.6,identity;q=0.3
  response:
    status:
      code: 200
      message: OK
    headers:
      Server:
      - Cowboy
      Connection:
      - close
      Date:
      - Thu, 28 Aug 2014 17:18:34 GMT
      Status:
      - 200 OK
      X-Frame-Options:
      - SAMEORIGIN
      X-Xss-Protection:
      - 1; mode=block
      X-Content-Type-Options:
      - nosniff
      Link:
      - <http://smc-ohana-api-test.herokuapp.com/api/search?keyword=&page=343>; rel="last",
        <http://smc-ohana-api-test.herokuapp.com/api/search?keyword=&page=2>; rel="next"
      X-Total-Count:
      - '343'
      X-Total-Pages:
      - '343'
      X-Current-Page:
      - '1'
      X-Next-Page:
      - '2'
      Content-Type:
      - application/json; charset=utf-8
      Etag:
      - '"976f4ec63adb419df1a1ff1dc62ea9f4"'
      Cache-Control:
      - max-age=0, private, must-revalidate
      X-Request-Id:
      - ffc6ac18-1640-46da-a59d-ac892fef44a4
      X-Runtime:
      - '0.023515'
      Via:
      - 1.1 vegur
    body:
      encoding: UTF-8
      string: '[{"id":1371,"admin_emails":[],"coordinates":[-122.138615,37.444609],"description":"A
        collection of 132,000 items including large print and foreign language books,
        magazines and newspapers, DVDs, audio and video cassettes, compact discs,
        paperbacks, talking books and telephone directories. Business as well as research
        reference is available. Also offers consumer information, photocopiers, bus
        schedules and the files of the Palo Alto Historical Association and Internet
        PCs.","kind":"Libraries","latitude":37.444609,"longitude":-122.138615,"name":"Main
        Library","short_desc":null,"slug":"main-library","slugs":["main-library"],"updated_at":"2014-05-24T14:07:15.187-07:00","urls":["http://www.cityofpaloalto.org/library"],"contacts_url":"http://smc-ohana-api-test.herokuapp.com/api/locations/main-library/contacts","faxes_url":"http://smc-ohana-api-test.herokuapp.com/api/locations/main-library/faxes","services_url":"http://smc-ohana-api-test.herokuapp.com/api/locations/main-library/services","url":"http://smc-ohana-api-test.herokuapp.com/api/locations/main-library","address":{"id":1111,"street":"1213
        Newell Road","city":"Palo Alto","state":"CA","zip":"94303"},"organization":{"id":1296,"name":"Palo
        Alto City Library","slug":"palo-alto-city-library","_slugs":["palo-alto-city-library"],"slugs":["palo-alto-city-library"],"urls":[],"url":"http://smc-ohana-api-test.herokuapp.com/api/organizations/palo-alto-city-library","locations_url":"http://smc-ohana-api-test.herokuapp.com/api/organizations/palo-alto-city-library/locations"},"phones":[{"id":1849,"department":null,"extension":null,"number":"650
        329-2436","number_type":null,"vanity_number":null}]}]'
    http_version: 
  recorded_at: Thu, 28 Aug 2014 17:18:36 GMT
recorded_with: VCR 2.9.2
