---
http_interactions:
- request:
    method: get
    uri: https://ohana-api-test.herokuapp.com/api/search?action=index&controller=locations&keyword=food
    body:
      encoding: US-ASCII
      string: ''
    headers:
      Accept:
      - application/vnd.ohanapi-v1+json
      User-Agent:
      - Ohanakapa Ruby Gem 1.1.2
      Accept-Encoding:
      - gzip;q=1.0,deflate;q=0.6,identity;q=0.3
  response:
    status:
      code: 200
      message: OK
    headers:
      Connection:
      - keep-alive
      Content-Type:
      - application/json; charset=utf-8
      Transfer-Encoding:
      - chunked
      Status:
      - 200 OK
      Strict-Transport-Security:
      - max-age=31536000
      X-Frame-Options:
      - SAMEORIGIN
      X-Xss-Protection:
      - 1; mode=block
      X-Content-Type-Options:
      - nosniff
      Link:
      - <https://ohana-api-test.herokuapp.com/api/search?keyword=food&page=5>; rel="last",
        <https://ohana-api-test.herokuapp.com/api/search?keyword=food&page=2>; rel="next"
      X-Total-Count:
      - '5'
      X-Total-Pages:
      - '5'
      X-Current-Page:
      - '1'
      X-Next-Page:
      - '2'
      Date:
      - Tue, 09 Sep 2014 23:22:50 GMT
      Cache-Control:
      - max-age=0, public
      X-Request-Id:
      - cb93881f-d0b3-4df1-bbf2-c0a79a8fdf04
      X-Runtime:
      - '0.034790'
      X-Powered-By:
      - Phusion Passenger 4.0.50
      Server:
      - nginx/1.6.1 + Phusion Passenger 4.0.50
      Via:
      - 1.1 vegur
    body:
      encoding: UTF-8
      string: '[{"id":6,"admin_emails":[],"coordinates":[-122.1805905,37.4480204],"description":"A
        multipurpose center offering a wide variety of recreational, education and
        cultural activities. Lifelong learning courses cover topics such as music,
        art, languages, etc., are hosted at this location. Little House offers a large
        variety of classes including arts and crafts, jewelry, languages, current
        events, lapidary, woodwork, painting, and fitness courses (yoga, strength
        straining, tai chi). There are monthly art and cultural lectures, movie showings,
        and a computer center. Recreation activities include mah jong, pinochle, ballroom
        dancing, bridge, trips and tours. Partners with the Sequoia Adult Education
        Program. The Alzheimer''s Cafe, open the third Tuesday of every month from
        2:00 - 4:00 pm, is a place that brings together people liviing with dementia,
        their families, and their caregivers. Free and no registration is needed.
        The Little House Community Service Desk offers information and referrals regarding
        social service issues, such as housing, food, transportation, health insurance
        counseling, and estate planning. Massage, podiatry, and acupuncture are available
        by appointment. Lunch is served Monday-Friday, 11:30 am-1:00 pm. Prices vary
        according to selection.","latitude":37.4480204,"longitude":-122.1805905,"name":"Little
        House","short_desc":"A multipurpose senior citizens'' center.","slug":"little-house","updated_at":"2014-07-15T12:51:52.581-07:00","urls":["http://www.penvol.org/littlehouse"],"contacts_url":"https://ohana-api-test.herokuapp.com/api/locations/little-house/contacts","faxes_url":"https://ohana-api-test.herokuapp.com/api/locations/little-house/faxes","services_url":"https://ohana-api-test.herokuapp.com/api/locations/little-house/services","url":"https://ohana-api-test.herokuapp.com/api/locations/little-house","address":{"id":6,"street":"800
        Middle Avenue","city":"Menlo Park","state":"CA","zip":"94025-9881"},"organization":{"id":2,"name":"Peninsula
        Volunteers","slug":"peninsula-volunteers","urls":[],"url":"https://ohana-api-test.herokuapp.com/api/organizations/peninsula-volunteers","locations_url":"https://ohana-api-test.herokuapp.com/api/organizations/peninsula-volunteers/locations"},"phones":[{"id":6,"department":null,"extension":null,"number":"650
        326-2025","number_type":null,"vanity_number":null}]}]'
    http_version: 
  recorded_at: Tue, 09 Sep 2014 23:22:50 GMT
recorded_with: VCR 2.9.2
