---
http_interactions:
- request:
    method: get
    uri: https://ohana-api-test.herokuapp.com/api/search?action=index&controller=locations&keyword=
    body:
      encoding: US-ASCII
      string: ''
    headers:
      Accept:
      - application/vnd.ohanapi-v1+json
      User-Agent:
      - Ohanakapa Ruby Gem 1.1.2
      Accept-Encoding:
      - gzip;q=1.0,deflate;q=0.6,identity;q=0.3
  response:
    status:
      code: 200
      message: OK
    headers:
      Connection:
      - keep-alive
      Content-Type:
      - application/json; charset=utf-8
      Transfer-Encoding:
      - chunked
      Status:
      - 200 OK
      Strict-Transport-Security:
      - max-age=31536000
      X-Frame-Options:
      - SAMEORIGIN
      X-Xss-Protection:
      - 1; mode=block
      X-Content-Type-Options:
      - nosniff
      Link:
      - <https://ohana-api-test.herokuapp.com/api/search?keyword=&page=24>; rel="last",
        <https://ohana-api-test.herokuapp.com/api/search?keyword=&page=2>; rel="next"
      X-Total-Count:
      - '24'
      X-Total-Pages:
      - '24'
      X-Current-Page:
      - '1'
      X-Next-Page:
      - '2'
      Date:
      - Tue, 09 Sep 2014 23:23:47 GMT
      Cache-Control:
      - max-age=0, public
      X-Request-Id:
      - a7673e32-492a-4f53-aad1-b9c317e7c064
      X-Runtime:
      - '0.023402'
      X-Powered-By:
      - Phusion Passenger 4.0.50
      Server:
      - nginx/1.6.1 + Phusion Passenger 4.0.50
      Via:
      - 1.1 vegur
    body:
      encoding: UTF-8
      string: '[{"id":1,"admin_emails":[],"coordinates":[-122.213221,37.477227],"description":"A
        walk-in center for older adults that provides social services, wellness, recreational,
        educational and creative activities including arts and crafts, computer classes
        and gardening classes. Coffee and healthy breakfasts are available daily.
        A hot lunch is served Tuesday-Friday for persons age 60 or over and spouse.        Provides
        case management (including in-home assessments) and bilingual information
        and referral about community services to persons age 60 or over on questions
        of housing, employment, household help, recreation and social activities,
        home delivered meals, health and counseling services and services to shut-ins.
        Health insurance and legal counseling is available by appointment. Lectures
        on a variety of health and fitness topics are held monthly in both English
        and Spanish.  Provides a variety of physical fitness opportunities, including
        a garden club, yoga, tai chi, soul line dance and aerobics classes geared
        toward older adults. Also provides free monthly blood pressure screenings,
        quarterly blood glucose monitoring and health screenings by a visiting nurse.
        Offers a Brown Bag Program in which low-income seniors can receive a bag of
        groceries each week for a membership fee of $10 a year. Offers Spanish lessons.
        Formerly known as Peninsula Family Service, Fair Oaks Intergenerational Center.
        Formerly known as the Fair Oaks Senior Center. Formerly known as Family Service
        Agency of San Mateo County, Fair Oaks Intergenerational Center.","latitude":37.477227,"longitude":-122.213221,"name":"Fair
        Oaks Adult Activity Center","short_desc":"A multipurpose senior citizens''
        center serving the Redwood City area.","slug":"fair-oaks-adult-activity-center","updated_at":"2014-05-09T20:49:18.836-07:00","urls":["http://www.peninsulafamilyservice.org"],"contacts_url":"https://ohana-api-test.herokuapp.com/api/locations/fair-oaks-adult-activity-center/contacts","faxes_url":"https://ohana-api-test.herokuapp.com/api/locations/fair-oaks-adult-activity-center/faxes","services_url":"https://ohana-api-test.herokuapp.com/api/locations/fair-oaks-adult-activity-center/services","url":"https://ohana-api-test.herokuapp.com/api/locations/fair-oaks-adult-activity-center","address":{"id":1,"street":"2600
        Middlefield Road","city":"Redwood City","state":"CA","zip":"94063"},"organization":{"id":1,"name":"Peninsula
        Family Service","slug":"peninsula-family-service","urls":[],"url":"https://ohana-api-test.herokuapp.com/api/organizations/peninsula-family-service","locations_url":"https://ohana-api-test.herokuapp.com/api/organizations/peninsula-family-service/locations"},"phones":[{"id":1,"department":null,"extension":null,"number":"650
        780-7525","number_type":null,"vanity_number":null}]}]'
    http_version: 
  recorded_at: Tue, 09 Sep 2014 23:23:47 GMT
- request:
    method: get
    uri: https://ohana-api-test.herokuapp.com/api/search?action=index&controller=locations&keyword=&location=94403&radius=foo
    body:
      encoding: US-ASCII
      string: ''
    headers:
      Accept:
      - application/vnd.ohanapi-v1+json
      User-Agent:
      - Ohanakapa Ruby Gem 1.1.2
      Accept-Encoding:
      - gzip;q=1.0,deflate;q=0.6,identity;q=0.3
  response:
    status:
      code: 400
      message: Bad Request
    headers:
      Connection:
      - keep-alive
      Content-Type:
      - application/json; charset=utf-8
      Transfer-Encoding:
      - chunked
      Status:
      - 400 Bad Request
      Strict-Transport-Security:
      - max-age=31536000
      X-Frame-Options:
      - SAMEORIGIN
      X-Xss-Protection:
      - 1; mode=block
      X-Content-Type-Options:
      - nosniff
      Cache-Control:
      - no-cache
      X-Request-Id:
      - 9fabdd07-52e2-40e5-a49f-62e4994e3b23
      X-Runtime:
      - '0.060667'
      X-Powered-By:
      - Phusion Passenger 4.0.50
      Date:
      - Tue, 09 Sep 2014 23:23:47 GMT
      Server:
      - nginx/1.6.1 + Phusion Passenger 4.0.50
      Via:
      - 1.1 vegur
    body:
      encoding: UTF-8
      string: '{"status":400,"error":"Argument Error","description":"Radius must be
        a Float between 0.1 and 50."}'
    http_version: 
  recorded_at: Tue, 09 Sep 2014 23:23:47 GMT
recorded_with: VCR 2.9.2
