---
http_interactions:
- request:
    method: get
    uri: http://ohana-api-test.herokuapp.com/api/search?action=index&controller=locations&keyword=
    body:
      encoding: US-ASCII
      string: ''
    headers:
      Accept:
      - application/vnd.ohanapi-v1+json
      User-Agent:
      - Ohanakapa Ruby Gem 1.1.2
      Accept-Encoding:
      - gzip;q=1.0,deflate;q=0.6,identity;q=0.3
  response:
    status:
      code: 200
      message: OK
    headers:
      Connection:
      - keep-alive
      Content-Type:
      - application/json; charset=utf-8
      Transfer-Encoding:
      - chunked
      Status:
      - 200 OK
      X-Frame-Options:
      - SAMEORIGIN
      X-Xss-Protection:
      - 1; mode=block
      X-Content-Type-Options:
      - nosniff
      Link:
      - <http://ohana-api-test.herokuapp.com/api/search?keyword=&page=24>; rel="last",
        <http://ohana-api-test.herokuapp.com/api/search?keyword=&page=2>; rel="next"
      X-Total-Count:
      - '24'
      X-Total-Pages:
      - '24'
      X-Current-Page:
      - '1'
      X-Next-Page:
      - '2'
      Date:
      - Thu, 11 Sep 2014 17:57:48 GMT
      Cache-Control:
      - max-age=0, public
      X-Request-Id:
      - c81b787f-9544-4c9b-9e06-ffc94d96a94f
      X-Runtime:
      - '0.034210'
      X-Powered-By:
      - Phusion Passenger 4.0.50
      Server:
      - nginx/1.6.1 + Phusion Passenger 4.0.50
      Via:
      - 1.1 vegur
    body:
      encoding: UTF-8
      string: '[{"id":1,"admin_emails":[],"coordinates":[-122.213221,37.477227],"description":"A
        walk-in center for older adults that provides social services, wellness, recreational,
        educational and creative activities including arts and crafts, computer classes
        and gardening classes. Coffee and healthy breakfasts are available daily.
        A hot lunch is served Tuesday-Friday for persons age 60 or over and spouse.        Provides
        case management (including in-home assessments) and bilingual information
        and referral about community services to persons age 60 or over on questions
        of housing, employment, household help, recreation and social activities,
        home delivered meals, health and counseling services and services to shut-ins.
        Health insurance and legal counseling is available by appointment. Lectures
        on a variety of health and fitness topics are held monthly in both English
        and Spanish.  Provides a variety of physical fitness opportunities, including
        a garden club, yoga, tai chi, soul line dance and aerobics classes geared
        toward older adults. Also provides free monthly blood pressure screenings,
        quarterly blood glucose monitoring and health screenings by a visiting nurse.
        Offers a Brown Bag Program in which low-income seniors can receive a bag of
        groceries each week for a membership fee of $10 a year. Offers Spanish lessons.
        Formerly known as Peninsula Family Service, Fair Oaks Intergenerational Center.
        Formerly known as the Fair Oaks Senior Center. Formerly known as Family Service
        Agency of San Mateo County, Fair Oaks Intergenerational Center.","latitude":37.477227,"longitude":-122.213221,"name":"Fair
        Oaks Adult Activity Center","short_desc":"A multipurpose senior citizens''
        center serving the Redwood City area.","slug":"fair-oaks-adult-activity-center","updated_at":"2014-05-09T20:49:18.836-07:00","urls":["http://www.peninsulafamilyservice.org"],"contacts_url":"http://ohana-api-test.herokuapp.com/api/locations/fair-oaks-adult-activity-center/contacts","faxes_url":"http://ohana-api-test.herokuapp.com/api/locations/fair-oaks-adult-activity-center/faxes","services_url":"http://ohana-api-test.herokuapp.com/api/locations/fair-oaks-adult-activity-center/services","url":"http://ohana-api-test.herokuapp.com/api/locations/fair-oaks-adult-activity-center","address":{"id":1,"street":"2600
        Middlefield Road","city":"Redwood City","state":"CA","zip":"94063"},"organization":{"id":1,"name":"Peninsula
        Family Service","slug":"peninsula-family-service","urls":[],"url":"http://ohana-api-test.herokuapp.com/api/organizations/peninsula-family-service","locations_url":"http://ohana-api-test.herokuapp.com/api/organizations/peninsula-family-service/locations"},"phones":[{"id":1,"department":null,"extension":null,"number":"650
        780-7525","number_type":null,"vanity_number":null}]}]'
    http_version: 
  recorded_at: Thu, 11 Sep 2014 17:57:48 GMT
- request:
    method: get
    uri: http://ohana-api-test.herokuapp.com/api/search?action=index&controller=locations&keyword=Samaritan%20House&location=&org_name=&utf8=%E2%9C%93
    body:
      encoding: US-ASCII
      string: ''
    headers:
      Accept:
      - application/vnd.ohanapi-v1+json
      User-Agent:
      - Ohanakapa Ruby Gem 1.1.2
      Accept-Encoding:
      - gzip;q=1.0,deflate;q=0.6,identity;q=0.3
  response:
    status:
      code: 200
      message: OK
    headers:
      Connection:
      - keep-alive
      Content-Type:
      - application/json; charset=utf-8
      Transfer-Encoding:
      - chunked
      Status:
      - 200 OK
      X-Frame-Options:
      - SAMEORIGIN
      X-Xss-Protection:
      - 1; mode=block
      X-Content-Type-Options:
      - nosniff
      Link:
      - <http://ohana-api-test.herokuapp.com/api/search?keyword=Samaritan+House&location=&org_name=&page=4&utf8=%E2%9C%93>;
        rel="last", <http://ohana-api-test.herokuapp.com/api/search?keyword=Samaritan+House&location=&org_name=&page=2&utf8=%E2%9C%93>;
        rel="next"
      X-Total-Count:
      - '4'
      X-Total-Pages:
      - '4'
      X-Current-Page:
      - '1'
      X-Next-Page:
      - '2'
      Date:
      - Thu, 11 Sep 2014 17:57:48 GMT
      Cache-Control:
      - max-age=0, public
      X-Request-Id:
      - 46c3e626-36ea-4a2d-b988-0fe600af9380
      X-Runtime:
      - '0.036077'
      X-Powered-By:
      - Phusion Passenger 4.0.50
      Server:
      - nginx/1.6.1 + Phusion Passenger 4.0.50
      Via:
      - 1.1 vegur
    body:
      encoding: UTF-8
      string: '[{"id":18,"admin_emails":[],"coordinates":[-122.207057,37.468678],"description":"Provides
        free medical care to those in need. Offers basic medical exams for adults
        and tuberculosis screening. Assists the individual to access other services
        in the community. By appointment only, Project Smile provides a free dental
        exam, dental cleaning and oral hygiene instruction for children, age 3-12,
        of Samaritan House clients.","latitude":37.468678,"longitude":-122.207057,"name":"Redwood
        City Free Medical Clinic","short_desc":"Provides free medical care to those
        in need.","slug":"redwood-city-free-medical-clinic","updated_at":"2014-07-15T13:20:11.599-07:00","urls":["http://www.samaritanhouse.com"],"contacts_url":"http://ohana-api-test.herokuapp.com/api/locations/redwood-city-free-medical-clinic/contacts","faxes_url":"http://ohana-api-test.herokuapp.com/api/locations/redwood-city-free-medical-clinic/faxes","services_url":"http://ohana-api-test.herokuapp.com/api/locations/redwood-city-free-medical-clinic/services","url":"http://ohana-api-test.herokuapp.com/api/locations/redwood-city-free-medical-clinic","address":{"id":18,"street":"114
        Fifth Avenue","city":"Redwood City","state":"CA","zip":"94063"},"organization":{"id":5,"name":"Samaritan
        House","slug":"samaritan-house","urls":[],"url":"http://ohana-api-test.herokuapp.com/api/organizations/samaritan-house","locations_url":"http://ohana-api-test.herokuapp.com/api/organizations/samaritan-house/locations"},"phones":[{"id":18,"department":null,"extension":null,"number":"650
        839-1447","number_type":null,"vanity_number":null}]}]'
    http_version: 
  recorded_at: Thu, 11 Sep 2014 17:57:48 GMT
- request:
    method: get
    uri: http://ohana-api-test.herokuapp.com/api/search?action=index&controller=locations&keyword=&location=94063
    body:
      encoding: US-ASCII
      string: ''
    headers:
      Accept:
      - application/vnd.ohanapi-v1+json
      User-Agent:
      - Ohanakapa Ruby Gem 1.1.2
      Accept-Encoding:
      - gzip;q=1.0,deflate;q=0.6,identity;q=0.3
  response:
    status:
      code: 200
      message: OK
    headers:
      Connection:
      - keep-alive
      Content-Type:
      - application/json; charset=utf-8
      Transfer-Encoding:
      - chunked
      Status:
      - 200 OK
      X-Frame-Options:
      - SAMEORIGIN
      X-Xss-Protection:
      - 1; mode=block
      X-Content-Type-Options:
      - nosniff
      Link:
      - <http://ohana-api-test.herokuapp.com/api/search?keyword=&location=94063&page=11>;
        rel="last", <http://ohana-api-test.herokuapp.com/api/search?keyword=&location=94063&page=2>;
        rel="next"
      X-Total-Count:
      - '11'
      X-Total-Pages:
      - '11'
      X-Current-Page:
      - '1'
      X-Next-Page:
      - '2'
      Date:
      - Thu, 11 Sep 2014 17:57:48 GMT
      Cache-Control:
      - max-age=0, public
      X-Request-Id:
      - 2f3ab9f4-f9dc-4ecc-b2c4-05df93edc526
      X-Runtime:
      - '0.095102'
      X-Powered-By:
      - Phusion Passenger 4.0.50
      Server:
      - nginx/1.6.1 + Phusion Passenger 4.0.50
      Via:
      - 1.1 vegur
    body:
      encoding: UTF-8
      string: '[{"id":14,"admin_emails":[],"coordinates":[-122.231539,37.49144],"description":"Provides
        food, clothing, bus tokens and shelter to individuals and families in times
        of crisis from the Redwood City Corps office and community centers throughout
        the county.   Administers Project REACH (Relief for Energy Assistance through
        Community Help) funds to prevent energy shut-off through a one-time payment.
        Counseling and translation services (English/Spanish) are available either
        on a walk-in basis or by appointment. Rental assistance with available funds.
        Another office (described separately) is located at 409 South Spruce Avenue,
        South San Francisco (650-266-4591).","latitude":37.49144,"longitude":-122.231539,"name":"Redwood
        City Corps","short_desc":"Provides a variety of emergency services to low-income
        persons. Also sponsors recreational and educational activities.","slug":"redwood-city-corps","updated_at":"2014-05-09T20:49:18.943-07:00","urls":["http://www.tsagoldenstate.org"],"contacts_url":"http://ohana-api-test.herokuapp.com/api/locations/redwood-city-corps/contacts","faxes_url":"http://ohana-api-test.herokuapp.com/api/locations/redwood-city-corps/faxes","services_url":"http://ohana-api-test.herokuapp.com/api/locations/redwood-city-corps/services","url":"http://ohana-api-test.herokuapp.com/api/locations/redwood-city-corps","address":{"id":14,"street":"660
        Veterans Blvd.","city":"Redwood City","state":"CA","zip":"94063"},"organization":{"id":4,"name":"Salvation
        Army","slug":"salvation-army","urls":[],"url":"http://ohana-api-test.herokuapp.com/api/organizations/salvation-army","locations_url":"http://ohana-api-test.herokuapp.com/api/organizations/salvation-army/locations"},"phones":[{"id":14,"department":null,"extension":null,"number":"650
        368-4643","number_type":null,"vanity_number":null}]}]'
    http_version: 
  recorded_at: Thu, 11 Sep 2014 17:57:48 GMT
recorded_with: VCR 2.9.2
