---
http_interactions:
- request:
    method: get
    uri: http://smc-ohana-api-test.herokuapp.com/api/search?action=index&controller=locations&keyword=
    body:
      encoding: US-ASCII
      string: ''
    headers:
      Accept:
      - application/vnd.ohanapi-v1+json
      User-Agent:
      - Ohanakapa Ruby Gem 1.1.2
      Accept-Encoding:
      - gzip;q=1.0,deflate;q=0.6,identity;q=0.3
  response:
    status:
      code: 200
      message: OK
    headers:
      Server:
      - Cowboy
      Connection:
      - keep-alive
      Date:
      - Sat, 14 Feb 2015 20:29:43 GMT
      Status:
      - 200 OK
      X-Frame-Options:
      - SAMEORIGIN
      X-Xss-Protection:
      - 1; mode=block
      X-Content-Type-Options:
      - nosniff
      Etag:
      - '"5512e432b83396d7b7aa3a4668f6dfae"'
      Link:
      - <http://smc-ohana-api-test.herokuapp.com/api/search?keyword=&page=343>; rel="last",
        <http://smc-ohana-api-test.herokuapp.com/api/search?keyword=&page=2>; rel="next"
      X-Total-Count:
      - '343'
      Content-Type:
      - application/json; charset=utf-8
      Cache-Control:
      - max-age=0, public
      X-Request-Id:
      - 43d83cc6-4fc0-4511-9503-343dca0150c4
      X-Runtime:
      - '9.324349'
      X-Content-Digest:
      - c65c56b962a54df8990ff342bc770ec58c4e5302
      Content-Length:
      - '1507'
      Age:
      - '0'
      X-Rack-Cache:
      - stale, valid, store
      Via:
      - 1.1 vegur
    body:
      encoding: UTF-8
      string: '[{"id":1371,"active":true,"admin_emails":[],"alternate_name":null,"coordinates":[-122.138615,37.444609],"description":"A
        collection of 132,000 items including large print and foreign language books,
        magazines and newspapers, DVDs, audio and video cassettes, compact discs,
        paperbacks, talking books and telephone directories. Business as well as research
        reference is available. Also offers consumer information, photocopiers, bus
        schedules and the files of the Palo Alto Historical Association and Internet
        PCs.","kind":"Libraries","latitude":37.444609,"longitude":-122.138615,"name":"Main
        Library","short_desc":null,"slug":"main-library","updated_at":"2014-11-30T19:05:11.640-08:00","url":"http://smc-ohana-api-test.herokuapp.com/api/locations/main-library","address":{"id":1111,"street":"1213
        Newell Road","street_1":"1213 Newell Road","street_2":null,"city":"Palo Alto","state":"CA","state_province":"CA","postal_code":"94303","zip":"94303"},"organization":{"id":1296,"accreditations":[],"alternate_name":null,"date_incorporated":null,"description":null,"email":null,"funding_sources":[],"licenses":[],"name":"Palo
        Alto City Library","website":null,"slug":"palo-alto-city-library","url":"http://smc-ohana-api-test.herokuapp.com/api/organizations/palo-alto-city-library","locations_url":"http://smc-ohana-api-test.herokuapp.com/api/organizations/palo-alto-city-library/locations"},"phones":[{"id":1849,"department":null,"extension":null,"number":"650
        329-2436","number_type":null,"vanity_number":null}]}]'
    http_version: 
  recorded_at: Sat, 14 Feb 2015 20:29:43 GMT
- request:
    method: get
    uri: http://smc-ohana-api-test.herokuapp.com/api/search?action=index&controller=locations&keyword=Samaritan%20House&location=&org_name=&utf8=%E2%9C%93
    body:
      encoding: US-ASCII
      string: ''
    headers:
      Accept:
      - application/vnd.ohanapi-v1+json
      User-Agent:
      - Ohanakapa Ruby Gem 1.1.2
      Accept-Encoding:
      - gzip;q=1.0,deflate;q=0.6,identity;q=0.3
  response:
    status:
      code: 200
      message: OK
    headers:
      Server:
      - Cowboy
      Connection:
      - keep-alive
      Date:
      - Sat, 14 Feb 2015 20:29:43 GMT
      Status:
      - 200 OK
      X-Frame-Options:
      - SAMEORIGIN
      X-Xss-Protection:
      - 1; mode=block
      X-Content-Type-Options:
      - nosniff
      Etag:
      - '"c6516f8a9fdd2033d0a4e423f24ebfa0"'
      Link:
      - <http://smc-ohana-api-test.herokuapp.com/api/search?keyword=Samaritan+House&location=&org_name=&page=3&utf8=%E2%9C%93>;
        rel="last", <http://smc-ohana-api-test.herokuapp.com/api/search?keyword=Samaritan+House&location=&org_name=&page=2&utf8=%E2%9C%93>;
        rel="next"
      X-Total-Count:
      - '3'
      Content-Type:
      - application/json; charset=utf-8
      Cache-Control:
      - max-age=0, public
      X-Request-Id:
      - 28abb3d3-bb67-48eb-947d-c0925b63d832
      X-Runtime:
      - '0.071597'
      X-Content-Digest:
      - fde484de9c602ba33c0d364c378a93e8c86c6793
      Content-Length:
      - '2404'
      Age:
      - '0'
      X-Rack-Cache:
      - miss, store
      Via:
      - 1.1 vegur
    body:
      encoding: UTF-8
      string: '[{"id":1389,"active":true,"admin_emails":[],"alternate_name":null,"coordinates":[-122.207057,37.468678],"description":"Primary
        and specialty medical and dental services to uninsured, low-income residents.
        Who is Treated? Patients of our clinics are the working poor. They tend to
        earn just enough income to be ineligible for Medi-Cal coverage, yet do not
        receive health insurance through their employers and cannot afford to pay
        for “out-of-pocket” health insurance. Often these residents are forced to
        seek treatment at local emergency rooms and become saddled with medical bills
        that they are unable to pay. Samaritan House’s Free Medical Clinics fill this
        gap in healthcare access for the uninsured and save emergency room resources
        for emergencies. Professional Medical \u0026 Dental Volunteers Thanks to its
        innovative volunteer-based model of service, Samaritan House’s clinics are
        able to treat such a large number of patients with a very small paid staff.
        Almost all of the medical and dental doctors and assistants are volunteering
        their time free of charge. These individuals, either retired or currently
        practicing medicine and dentistry, want to serve their community in their
        limited spare time.","kind":"Human Services","latitude":37.468678,"longitude":-122.207057,"name":"Redwood
        City Free Medical Clinic","short_desc":"Provides free medical care to those
        in need.","slug":"redwood-city-free-medical-clinic","updated_at":"2014-11-30T19:05:12.142-08:00","url":"http://smc-ohana-api-test.herokuapp.com/api/locations/redwood-city-free-medical-clinic","address":{"id":1129,"street":"114
        Fifth Avenue","street_1":"114 Fifth Avenue","street_2":null,"city":"Redwood
        City","state":"CA","state_province":"CA","postal_code":"94063","zip":"94063"},"organization":{"id":1301,"accreditations":[],"alternate_name":null,"date_incorporated":null,"description":null,"email":null,"funding_sources":[],"licenses":[],"name":"Samaritan
        House","website":null,"slug":"samaritan-house-57cf15eb-09cd-498e-a0e8-b2f154a07bec","url":"http://smc-ohana-api-test.herokuapp.com/api/organizations/samaritan-house-57cf15eb-09cd-498e-a0e8-b2f154a07bec","locations_url":"http://smc-ohana-api-test.herokuapp.com/api/organizations/samaritan-house-57cf15eb-09cd-498e-a0e8-b2f154a07bec/locations"},"phones":[{"id":1903,"department":null,"extension":null,"number":"650
        839-1447","number_type":null,"vanity_number":null}]}]'
    http_version: 
  recorded_at: Sat, 14 Feb 2015 20:29:43 GMT
- request:
    method: get
    uri: http://smc-ohana-api-test.herokuapp.com/api/search?action=index&controller=locations&keyword=&org_name=Samaritan%20House
    body:
      encoding: US-ASCII
      string: ''
    headers:
      Accept:
      - application/vnd.ohanapi-v1+json
      User-Agent:
      - Ohanakapa Ruby Gem 1.1.2
      Accept-Encoding:
      - gzip;q=1.0,deflate;q=0.6,identity;q=0.3
  response:
    status:
      code: 200
      message: OK
    headers:
      Server:
      - Cowboy
      Connection:
      - keep-alive
      Date:
      - Sat, 14 Feb 2015 20:29:43 GMT
      Status:
      - 200 OK
      X-Frame-Options:
      - SAMEORIGIN
      X-Xss-Protection:
      - 1; mode=block
      X-Content-Type-Options:
      - nosniff
      Etag:
      - '"c7a2e42a2d108a69562d8175137837e7"'
      Link:
      - <http://smc-ohana-api-test.herokuapp.com/api/search?keyword=&org_name=Samaritan+House&page=2>;
        rel="last", <http://smc-ohana-api-test.herokuapp.com/api/search?keyword=&org_name=Samaritan+House&page=2>;
        rel="next"
      X-Total-Count:
      - '2'
      Content-Type:
      - application/json; charset=utf-8
      Cache-Control:
      - max-age=0, public
      X-Request-Id:
      - a2d40df3-800a-45a6-b78c-50e880edb494
      X-Runtime:
      - '0.178787'
      X-Content-Digest:
      - fde484de9c602ba33c0d364c378a93e8c86c6793
      Content-Length:
      - '2404'
      Age:
      - '0'
      X-Rack-Cache:
      - miss, store
      Via:
      - 1.1 vegur
    body:
      encoding: UTF-8
      string: '[{"id":1389,"active":true,"admin_emails":[],"alternate_name":null,"coordinates":[-122.207057,37.468678],"description":"Primary
        and specialty medical and dental services to uninsured, low-income residents.
        Who is Treated? Patients of our clinics are the working poor. They tend to
        earn just enough income to be ineligible for Medi-Cal coverage, yet do not
        receive health insurance through their employers and cannot afford to pay
        for “out-of-pocket” health insurance. Often these residents are forced to
        seek treatment at local emergency rooms and become saddled with medical bills
        that they are unable to pay. Samaritan House’s Free Medical Clinics fill this
        gap in healthcare access for the uninsured and save emergency room resources
        for emergencies. Professional Medical \u0026 Dental Volunteers Thanks to its
        innovative volunteer-based model of service, Samaritan House’s clinics are
        able to treat such a large number of patients with a very small paid staff.
        Almost all of the medical and dental doctors and assistants are volunteering
        their time free of charge. These individuals, either retired or currently
        practicing medicine and dentistry, want to serve their community in their
        limited spare time.","kind":"Human Services","latitude":37.468678,"longitude":-122.207057,"name":"Redwood
        City Free Medical Clinic","short_desc":"Provides free medical care to those
        in need.","slug":"redwood-city-free-medical-clinic","updated_at":"2014-11-30T19:05:12.142-08:00","url":"http://smc-ohana-api-test.herokuapp.com/api/locations/redwood-city-free-medical-clinic","address":{"id":1129,"street":"114
        Fifth Avenue","street_1":"114 Fifth Avenue","street_2":null,"city":"Redwood
        City","state":"CA","state_province":"CA","postal_code":"94063","zip":"94063"},"organization":{"id":1301,"accreditations":[],"alternate_name":null,"date_incorporated":null,"description":null,"email":null,"funding_sources":[],"licenses":[],"name":"Samaritan
        House","website":null,"slug":"samaritan-house-57cf15eb-09cd-498e-a0e8-b2f154a07bec","url":"http://smc-ohana-api-test.herokuapp.com/api/organizations/samaritan-house-57cf15eb-09cd-498e-a0e8-b2f154a07bec","locations_url":"http://smc-ohana-api-test.herokuapp.com/api/organizations/samaritan-house-57cf15eb-09cd-498e-a0e8-b2f154a07bec/locations"},"phones":[{"id":1903,"department":null,"extension":null,"number":"650
        839-1447","number_type":null,"vanity_number":null}]}]'
    http_version: 
  recorded_at: Sat, 14 Feb 2015 20:29:44 GMT
recorded_with: VCR 2.9.3
