---
http_interactions:
- request:
    method: get
    uri: http://smc-ohana-api-test.herokuapp.com/api/search?action=index&controller=locations
    body:
      encoding: US-ASCII
      string: ''
    headers:
      Accept:
      - application/vnd.ohanapi-v1+json
      User-Agent:
      - Ohanakapa Ruby Gem 1.1.2
      Accept-Encoding:
      - gzip;q=1.0,deflate;q=0.6,identity;q=0.3
  response:
    status:
      code: 200
      message: OK
    headers:
      Server:
      - Cowboy
      Connection:
      - keep-alive
      X-Frame-Options:
      - SAMEORIGIN
      X-Xss-Protection:
      - 1; mode=block
      X-Content-Type-Options:
      - nosniff
      Etag:
      - '"c464f727ed8f9567e522a8adc6f024ef"'
      Link:
      - <http://smc-ohana-api-test.herokuapp.com/api/search?page=343>; rel="last",
        <http://smc-ohana-api-test.herokuapp.com/api/search?page=2>; rel="next"
      X-Total-Count:
      - '343'
      Content-Type:
      - application/json; charset=utf-8
      Cache-Control:
      - max-age=0, public
      X-Request-Id:
      - e3488257-b727-40fb-a971-0547b2f550b7
      X-Runtime:
      - '3.222846'
      X-Content-Digest:
      - a315da6510efa7aac563b1f949dd53cda88db56a
      Date:
      - Sat, 15 Aug 2015 18:04:24 GMT
      Age:
      - '0'
      X-Rack-Cache:
      - stale, valid, store
      Content-Length:
      - '1500'
      Via:
      - 1.1 vegur
    body:
      encoding: UTF-8
      string: '[{"id":1371,"active":true,"admin_emails":[],"alternate_name":null,"coordinates":[-122.138615,37.444609],"description":"A
        collection of 132,000 items including large print and foreign language books,
        magazines and newspapers, DVDs, audio and video cassettes, compact discs,
        paperbacks, talking books and telephone directories. Business as well as research
        reference is available. Also offers consumer information, photocopiers, bus
        schedules and the files of the Palo Alto Historical Association and Internet
        PCs.","kind":"Libraries","latitude":37.444609,"longitude":-122.138615,"name":"Main
        Library","short_desc":null,"slug":"main-library","updated_at":"2014-11-30T19:05:11.640-08:00","url":"http://smc-ohana-api-test.herokuapp.com/api/locations/main-library","address":{"id":1111,"address_1":"1213
        Newell Road","address_2":null,"street_1":"1213 Newell Road","street_2":null,"city":"Palo
        Alto","state_province":"CA","postal_code":"94303"},"organization":{"id":1296,"accreditations":[],"alternate_name":null,"date_incorporated":null,"description":null,"email":null,"funding_sources":[],"licenses":[],"name":"Palo
        Alto City Library","website":null,"slug":"palo-alto-city-library","url":"http://smc-ohana-api-test.herokuapp.com/api/organizations/palo-alto-city-library","locations_url":"http://smc-ohana-api-test.herokuapp.com/api/organizations/palo-alto-city-library/locations"},"phones":[{"id":1849,"department":null,"extension":null,"number":"650
        329-2436","number_type":null,"vanity_number":null}]}]'
    http_version: 
  recorded_at: Sat, 15 Aug 2015 18:04:25 GMT
- request:
    method: get
    uri: http://smc-ohana-api-test.herokuapp.com/api/search?action=index&controller=locations&keyword=foo&location=94403
    body:
      encoding: US-ASCII
      string: ''
    headers:
      Accept:
      - application/vnd.ohanapi-v1+json
      User-Agent:
      - Ohanakapa Ruby Gem 1.1.2
      Accept-Encoding:
      - gzip;q=1.0,deflate;q=0.6,identity;q=0.3
  response:
    status:
      code: 200
      message: OK
    headers:
      Server:
      - Cowboy
      Connection:
      - keep-alive
      X-Frame-Options:
      - SAMEORIGIN
      X-Xss-Protection:
      - 1; mode=block
      X-Content-Type-Options:
      - nosniff
      Etag:
      - '"c7a6a7601db2646b941d435bed7585e6"'
      Link:
      - <http://smc-ohana-api-test.herokuapp.com/api/search?keyword=foo&location=94403&page=12>;
        rel="last", <http://smc-ohana-api-test.herokuapp.com/api/search?keyword=foo&location=94403&page=2>;
        rel="next"
      X-Total-Count:
      - '12'
      Content-Type:
      - application/json; charset=utf-8
      Cache-Control:
      - max-age=0, public
      X-Request-Id:
      - 08274565-3830-4d85-b60c-148edec23d8c
      X-Runtime:
      - '0.086301'
      X-Content-Digest:
      - cf09cc5cf688099950f5b386b66776a5681c649e
      Date:
      - Sat, 15 Aug 2015 18:04:25 GMT
      Age:
      - '0'
      X-Rack-Cache:
      - stale, valid, store
      Content-Length:
      - '2901'
      Via:
      - 1.1 vegur
    body:
      encoding: UTF-8
      string: '[{"id":1493,"active":true,"admin_emails":[],"alternate_name":null,"coordinates":[-122.2671065,37.5175545],"description":"A
        vocational rehabilitation center for any employable county resident who is
        disabled or economically disadvantaged who wishes to enter, re-enter or remain
        in the labor market. Referrals are accepted from county agencies, the State
        Department of Rehabilitation and private treatment providers. Services include
        vocational evaluation, work adjustment training, vocational testing, vocational
        social security benefits counseling, Medi Care Part D counseling, job placement,
        and supported employment services. The Workcenter bids competitively for outside
        contracts from industry - packaging, assembly, sorting, collating, etc. A
        food service program provides training in culinary arts, hot lunches for the
        workforce and catering in the public and private nonprofit sector. Provides
        a Workfare component using the Workcenter to help GA (General Assistance)clients
        earn their GA grants by working two days a week. GA clients must participate
        in an intensive program to maintain their eligibility and to get them back
        into the labor force. Provides vocational counseling, assessment and training,
        skills and interest inventories,and case management in a structured transitional
        work environment, job search, job placement and job coaching services as well
        as information, referral and advocacy to persons with barriers to employment
        including mental health, General Assistance, CalWORKs, alcohol and other drug
        abuse issues, and the currently or formerly incarcerated.","kind":"Human Services","latitude":37.5175545,"longitude":-122.2671065,"name":"Vocational
        Rehabilitation Services (VRS) Workcenter","short_desc":"Provides job training,
        placement or employment for any employable county resident collecting General
        Assistance or undergoing psychiatric treatment.","slug":"vocational-rehabilitation-services-vrs-workcenter","updated_at":"2014-11-30T19:05:14.240-08:00","url":"http://smc-ohana-api-test.herokuapp.com/api/locations/vocational-rehabilitation-services-vrs-workcenter","address":{"id":1232,"address_1":"550
        Quarry Road","address_2":null,"street_1":"550 Quarry Road","street_2":null,"city":"San
        Carlos","state_province":"CA","postal_code":"94070"},"organization":{"id":1310,"accreditations":[],"alternate_name":null,"date_incorporated":null,"description":null,"email":null,"funding_sources":[],"licenses":[],"name":"San
        Mateo County Human Services Agency","website":null,"slug":"san-mateo-county-human-services-agency","url":"http://smc-ohana-api-test.herokuapp.com/api/organizations/san-mateo-county-human-services-agency","locations_url":"http://smc-ohana-api-test.herokuapp.com/api/organizations/san-mateo-county-human-services-agency/locations"},"phones":[{"id":2082,"department":null,"extension":null,"number":"650
        802-6482","number_type":null,"vanity_number":null}]}]'
    http_version: 
  recorded_at: Sat, 15 Aug 2015 18:04:25 GMT
recorded_with: VCR 2.9.3
